{
    "label": "Verbrauchsgegenstand-Effekte",
    "mapping": {
        "name": "name",
        "description": "data.description.value"
    },
    "entries": {
        "Effect: Antidote (Greater)": {
            "name": "Effekt: Gegengift (Stark)",
            "description": "<p>Gewährt durch @Compendium[pf2e.equipment-srd.XWkeL34yJK6t5qUE]{Gegengift, Starkes}</p>\n<p>Implementierte Effekte:</p>\n<ul>\n<li>+4 Gegenstandsbonus auf Zähigkeitswürfe gegen Gifte</li>\n</ul>"
        },
        "Effect: Antidote (Lesser)": {
            "name": "Effekt: Gegengift (Schwach)",
            "description": "<p>Gewährt durch @Compendium[pf2e.equipment-srd.ktjFOp3U0wQD9t0Z]{Gegengift (Schwach)}</p>\n<p>Implementierte Effekte:</p>\n<ul>\n<li>+2 Gegenstandsbonus auf Zähigkeitswürfe gegen Gifte</li>\n</ul>"
        },
        "Effect: Antidote (Major)": {
            "name": "Effekt: Gegengift (Mächtig)",
            "description": "<p>Gewährt durch @Compendium[pf2e.equipment-srd.ANzB9WzlGQXDn76G]{Gegengift (Mächtig)}</p>\n<p>Implementierte Effekte:</p>\n<ul>\n<li>+4 Gegenstandsbonus auf Zähigkeitswürfe gegen Gifte</li>\n</ul>\n<p>Nicht implementierte Effekte:</p>\n<ul>\n<li>Wenn du das Gegengift trinkst, kannst du sofort einen Rettungswurf gegen ein auf dich wirkendes Gift der maximal 14. Stufe ausführen. Bei einem Erfolg ist das Gift neutralisiert.</li>\n</ul>"
        },
        "Effect: Antidote (Moderate)": {
            "name": "Effekt: Gegengift (Einfach)",
            "description": "<p>Gewährt durch @Compendium[pf2e.equipment-srd.AJ1dC7EtTIfBey0M]{Gegengift (Einfach)}</p>\n<p>Implementierte Effekte:</p>\n<ul>\n<li>+3 Gegenstandsbonus auf Zähigkeitswürfe gegen Gifte</li>\n</ul>"
        },
        "Effect: Antiplague (Greater)": {
            "name": "Effekt: Medizin (Stark)",
            "description": "<p>Gewährt durch @Compendium[pf2e.equipment-srd.ORDaAzMZLrf6Hn8A]{Medizin (Stark)}</p>\n<p>Implementierte Effekte:</p>\n<ul>\n<li>+2 Gegenstandsbonus auf Zähigkeitswürfe gegen Krankheiten; dieser wirkt auf deinen täglichen Rettungswurf gegen das Fortschreiten einer Krankheit.</li>\n</ul>"
        },
        "Effect: Antiplague (Lesser)": {
            "name": "Effekt: Medizin (Schwach)",
            "description": "<p>Gewährt durch @Compendium[pf2e.equipment-srd.UqinuuCWePTYGhVO]{Medizin (Schwach)}</p>\n<p>Implementierte Effekte:</p>\n<ul>\n<li>+2 Gegenstandsbonus auf Zähigkeitswürfe gegen Krankheiten; dieser wirkt auf deinen täglichen Rettungswurf gegen das Fortschreiten einer Krankheit.</li>\n</ul>"
        },
        "Effect: Antiplague (Major)": {
            "name": "Effekt: Medizin (Mächtig)",
            "description": "<p>Gewährt durch @Compendium[pf2e.equipment-srd.kajpTXg3oHIJStQa]{Medizin (Mächtig)}</p>\n<p>Implementierte Effekte:</p>\n<ul>\n<li>+2 Gegenstandsbonus auf Zähigkeitswürfe gegen Krankheiten; dieser wirkt auf deinen täglichen Rettungswurf gegen das Fortschreiten einer Krankheit.</li>\n</ul>\n<p>Nicht implementierte Effekte:</p>\n<ul>\n<li>Du kannst sofort einen Rettungswurf gegen eine auf dich wirkende Krankheit der maximal 14. Stufe ausführen. Bei einem Erfolg bist du von der Krankheit geheilt.</li>\n</ul>"
        },
        "Effect: Antiplague (Moderate)": {
            "name": "Effekt: Medizin (Einfach)",
            "description": "<p>Gewährt durch @Compendium[pf2e.equipment-srd.biRbqKo2C97XLfQ0]{Medizin (Einfach)}</p>\n<p>Implementierte Effekte:</p>\n<ul>\n<li>+3 Gegenstandsbonus auf Zähigkeitswürfe gegen Krankheiten; dieser wirkt auf deinen täglichen Rettungswurf gegen das Fortschreiten einer Krankheit.</li>\n</ul>"
        },
        "Effect: Applereed Mutagen (Greater)": {
            "name": "Effekt: Stelzenbeinmutagen, Stark",
            "description": "<p>Gewährt durch @Compendium[pf2e.equipment-srd.vTEWlRBUD4VzVwxK]{Stelzenbeinmutagen, Stark}</p>\n<p>Implementierte Effekte:</p>\n<ul>\n<li>+4 Bonus auf Würfe für Athletik</li>\n<li>+6 m Bonus auf die Bewegungsrate</li>\n<li>Du wächst um eine Größenkategorie</li>\n<li>Malus von -1 auf deine RK</li>\n<li>Malus von -2 auf Reflexwürfe</li>\n</ul>"
        },
        "Effect: Applereed Mutagen (Lesser)": {
            "name": "Effekt: Stelzenbeinmutagen, Schwach",
            "description": "<p>Gewährt durch @Compendium[pf2e.equipment-srd.0RTsyWutvO42O0zK]{Stelzenbeinmutagen, Schwach}</p>\n<p>Implementierte Effekte:</p>\n<ul>\n<li>+2 Bonus auf Würfe für Athletik</li>\n<li>+3 m Bonus auf die Bewegungsrate</li>\n<li>Du wächst um eine Größenkategorie</li>\n<li>Malus von -1 auf deine RK</li>\n<li>Malus von -2 auf Reflexwürfe</li>\n</ul>"
        },
        "Effect: Applereed Mutagen (Moderate)": {
            "name": "Effekt: Stelzenbeinmutagen, Durchschnittlich",
            "description": "<p>Gewährt durch @Compendium[pf2e.equipment-srd.8e37h6HBr4ZyBSGt]{Stelzenbeinmutagen, Durchschnittlich}</p>\n<p>Implementierte Effekte:</p>\n<ul>\n<li>+3 Bonus auf Würfe für Athletik</li>\n<li>+4,50 m Bonus auf die Bewegungsrate</li>\n<li>Du wächst um eine Größenkategorie</li>\n<li>Malus von -1 auf deine RK</li>\n<li>Malus von -2 auf Reflexwürfe</li>\n</ul>"
        },
        "Effect: Bestial Mutagen (Greater)": {
            "name": "Effekt: Bestienmutagen (Stark)",
            "description": "<p>Gewährt durch @Compendium[pf2e.equipment-srd.gDheph8YteBtnyKp]{Bestienmutagen (Stark)}</p>\n<p>Implementierte Effekte:</p>\n<ul>\n<li>+3 Gegenstandsbonus auf Athletikwürfe</li>\n<li>+3 Gegenstandsbonus auf waffenlose Angriffswürfe</li>\n<li>Du erhältst einen Waffenlosen Angriff mit den Klauen der Kategorie Agil (1W8 Hieb)</li>\n<li>Du erhältst einen Waffenlosen Angriff mit den Kiefern (1W10 Stich)</li>\n<li>Malus von -1 auf RK</li>\n<li>Malus von -2 auf Reflexwürfe</li>\n</ul>"
        },
        "Effect: Bestial Mutagen (Lesser)": {
            "name": "Effekt: Bestienmutagen (Schwach)",
            "description": "<p>Gewährt durch @Compendium[pf2e.equipment-srd.IQK9N2mEOyAj3iWU]{Bestienmutagen (Schwach)}</p>\n<p>Implementierte Effekte:</p>\n<ul>\n<li>+1 Gegenstandsbonus auf Athletikwürfe</li>\n<li>+1 Gegenstandsbonus auf waffenlose Angriffswürfe</li>\n<li>Du erhältst einen Waffenlosen Angriff mit den Klauen der Kategorie Agil (1W4 Hieb)</li>\n<li>Du erhältst einen Waffenlosen Angriff mit den Kiefern (1W6 Stich)</li>\n<li>Malus von -1 auf RK</li>\n<li>Malus von -2 auf Reflexwürfe</li>\n</ul>"
        },
        "Effect: Bestial Mutagen (Major)": {
            "name": "Effekt: Bestienmutagen (Mächtig)",
            "description": "<p>Gewährt durch @Compendium[pf2e.equipment-srd.nS75vsM3x5jxlUqn]{Bestienmutagen (Mächtig)}</p>\n<p>Implementierte Effekte:</p>\n<ul>\n<li>+4 Gegenstandsbonus auf Athletikwürfe</li>\n<li>+4 Gegenstandsbonus auf waffenlose Angriffswürfe</li>\n<li>Du erhältst einen Waffenlosen Angriff mit den Klauen der Kategorie Agil (1W8 Hieb)</li>\n<li>Du erhältst einen Waffenlosen Angriff mit den Kiefern (1W10 Stich)</li>\n<li>Malus von -1 auf RK</li>\n<li>Malus von -2 auf Reflexwürfe</li>\n</ul>\n<p>Nicht implementierte Effekte:</p>\n<ul>\n<li>Du erhältst Waffenspezialisierung für Klauen und Kiefer, bzw. – falls du in diesen Waffenlosen Angriffen bereits Waffenspezialisierung hast – Mächtige Waffenspezialisierung.</li>\n</ul>"
        },
        "Effect: Bestial Mutagen (Moderate)": {
            "name": "Effekt: Bestienmutagen (Einfach)",
            "description": "<p>Gewährt durch @Compendium[pf2e.equipment-srd.VISk5uLPVIvNWovB]{Bestienmutagen (Einfach)}</p>\n<p>Implementierte Effekte:</p>\n<ul>\n<li>+2 Gegenstandsbonus auf Athletikwürfe</li>\n<li>+2 Gegenstandsbonus auf waffenlose Angriffswürfe</li>\n<li>Du erhältst einen Waffenlosen Angriff mit den Klauen der Kategorie Agil (1W6 Hieb)</li>\n<li>Du erhältst einen Waffenlosen Angriff mit den Kiefern (1W8 Stich)</li>\n<li>Malus von -1 auf RK</li>\n<li>Malus von -2 auf Reflexwürfe</li>\n</ul>"
        },
        "Effect: Bloodhound Mask (Greater)": {
            "name": "Effekt: Bluthundmaske (Stark)",
            "description": "<p>Gewährt durch @Compendium[pf2e.equipment-srd.2x8F5s3PyKzYsRrZ]{Bluthundmaske (Stark)}</p>\n<p>Automatisch angewandte Effekte:</p>\n<ul>\n<li>verleiht dir Ungenauer Sinn (Geruchssinn) mit 18 Meter Reichweite</li>\n<li>+3 Gegenstandsbonus für deinen Fertigkeitswurf auf Überleben</li>\n</ul>"
        },
        "Effect: Bloodhound Mask (Lesser)": {
            "name": "Effekt: Bluthundmaske (Schwach)",
            "description": "<p>Gewährt durch @Compendium[pf2e.equipment-srd.mDJSaarQsIMX7Opi]{Bloodhound Mask (Lesser)}</p>\n<p>Automatisch angewandte Effekte:</p>\n<ul>\n<li>verleiht dir Ungenauer Sinn (Geruchssinn) mit 4,50 Meter Reichweite</li>\n<li>+1 Gegenstandsbonus für deinen Fertigkeitswurf auf Überleben</li>\n</ul>"
        },
        "Effect: Bloodhound Mask (Moderate)": {
            "name": "Effekt: Bluthundmaske (Durchschnittlich)",
            "description": "<p>Gewährt durch @Compendium[pf2e.equipment-srd.qasFfdiZKIczoZ9p]{Bluthundmaske (Durchschnittlich)}</p>\n<p>Automatisch angewandte Effekte:</p>\n<ul>\n<li>verleiht dir Ungenauer Sinn (Geruchssinn) mit 9 Meter Reichweite</li>\n<li>+2 Gegenstandsbonus für deinen Fertigkeitswurf auf Überleben</li>\n</ul>"
        },
        "Effect: Boulderhead Bock": {
            "name": "Effekt: Felsbockbier",
            "description": "<p>Gewährt durch @Compendium[pf2e.equipment-srd.I0eUrgVGl8a2ZjFc]{Felsbockbier}.</p>\n<p>Automatisch angewandte Effekte:</p>\n<ul>\n<li>Gegenstandsbonus von +1 auf Rettungswürfe gegen Effekte, welche dich entweder Betäuben oder Benommen machen würden.</li>\n<li>Gegenstandsmalus von -2 für Wahrnehmungswürfe.</li>\n</ul>"
        },
        "Effect: Bravo's Brew (Greater)": {
            "name": "Effekt: Draufgängerbräu (Stark)",
            "description": "<p>Gewährt durch @Compendium[pf2e.equipment-srd.sWPkbSlWAEAStBqD]{Draufgängerbräu (Stark)}</p>\n<p>Implementierte Effekte:</p>\n<ul>\n<li>+1 Gegenstandsbonus auf Willenswürfe</li>\n<li>+2 Gegenstandsbonus auf Willenswürfe gegen Furcht</li>\n</ul>\n<p>Nicht implementierte Effekte:</p>\n<ul>\n<li>Wenn du gegen einen Furchteffekt einen Erfolg erzielst, wird dieser stattdessen als Kritischer Erfolg gezählt.</li>\n</ul>"
        },
        "Effect: Bravo's Brew (Lesser)": {
            "name": "Effekt: Draufgängerbräu (Schwach)",
            "description": "<p>Gewährt durch @Compendium[pf2e.equipment-srd.zM9VX3QwM81DzDUA]{Draufgängerbräu (Schwach)}</p>\n<p>Implementierte Effekte:</p>\n<ul>\n<li>+1 Gegenstandsbonus auf Willenswürfe</li>\n<li>+2 Gegenstandsbonus auf Willenswürfe gegen Furcht</li>\n</ul>"
        },
        "Effect: Bravo's Brew (Moderate)": {
            "name": "Effekt: Draufgängerbräu (Einfach)",
            "description": "<p>Gewährt durch @Compendium[pf2e.equipment-srd.oCuwJ9IUDAuzsUwa]{Draufgängerbräu (Einfach)}</p>\n<p>Implementierte Effekte:</p>\n<ul>\n<li>+2 Gegenstandsbonus auf Willenswürfe</li>\n<li>+3 Gegenstandsbonus auf Willenswürfe gegen Furcht</li>\n</ul>"
        },
        "Effect: Bronze Bull Pendant": {
            "name": "Effekt: Bronzebullentalisman",
            "description": "<p>Gewährt durch @Compendium[pf2e.equipment-srd.nXStoLxPrrP2b6WB]{Bronzebullentalisman}</p>\n<hr />\n<p>Automatisch angewendete Effekte:</p>\n<ul>\n<li>Zustandsbonus von +2 auf den Athletikwurf zum Fortstoßen</li>\n</ul>"
        },
        "Effect: Cheetah's Elixir (Greater)": {
            "name": "Effekt: Gepardenelixier (Stark)",
            "description": "<p>Gewährt durch @Compendium[pf2e.equipment-srd.t4X6GDybqLmt7UkN]{Effekt: Gepardenelixier (Stark)}</p>\n<p>Automatisch angewandte Effekte:</p>\n<ul>\n<li>+3 m Zustandsbonus auf Bewegungsrate</li>\n</ul>"
        },
        "Effect: Cheetah's Elixir (Lesser)": {
            "name": "Effekt: Gepardenelixier (Schwach)",
            "description": "<p>Gewährt durch @Compendium[pf2e.equipment-srd.tyt6rFtv32MZ4DT9]{Gepardenelixier (Schwach)}</p>\n<p>Automatisch angewandte Effekte:</p>\n<ul>\n<li>+1,50 m Zustandsbonus auf Bewegungsrate</li>\n</ul>"
        },
        "Effect: Cheetah's Elixir (Moderate)": {
            "name": "Effekt: Gepardenelixier (Einfach)",
            "description": "<p>Gewährt durch @Compendium[pf2e.equipment-srd.AqLxu3ir4UGzdOaz]{Gepardenelixier (Einfach)}</p>\n<p>Automatisch angewandte Effekte:</p>\n<ul>\n<li>+3 m Zustandsbonus auf Bewegungsrate</li>\n</ul>"
        },
        "Effect: Cognitive Mutagen (Greater)": {
            "name": "Effekt: Kognitivmutagen (Stark)",
            "description": "<p>Gewährt durch @Compendium[pf2e.equipment-srd.ZGojRKG1yYiVWemR]{Kognitivmutagen (Stark)}</p>\n<p><strong>Implementierte Effekte:</strong></p>\n<ul>\n<li>+3 Gegenstandsbonus auf Fertigkeitswürfe für Arkane Künste, Handwerkskunst, Okkultismus und Gesellschaftskunde</li>\n<li>+3 Gegenstandsbonus auf alle Fertigkeitswürfe zum Wissen abrufen</li>\n<li>-2 auf Waffenangriffe und Waffenlose Angriffswürfe</li>\n<li>-2 auf Fertigkeitswürfe für Athletik und Akrobatik</li>\n</ul>\n<p><strong>Nicht implementierte Effekte:</strong></p>\n<ul>\n<li>+3 Gegenstandsbonus auf Fertigkeitswürfe für Kenntnis</li>\n<li>deine Kritischen Fehlschläge bei Wissen abrufen werden stattdessen zu Fehlschlägen</li>\n<li>du kannst 2 Lasteinheiten weniger als üblich tragen, bevor du den Zustand Belastet erlangst</li>\n<li>die Maximallast, die du tragen kannst, verringert sich um 4</li>\n</ul>"
        },
        "Effect: Cognitive Mutagen (Lesser)": {
            "name": "Effekt: Kognitivmutagen (Schwach)",
            "description": "<p>Gewährt durch @Compendium[pf2e.equipment-srd.wbr6rkyaVYnDhdgV]{Kognitivmutagen (Schwach)}</p>\n<p><strong>Implementierte Effekte:</strong></p>\n<ul>\n<li>+1 Gegenstandsbonus auf Fertigkeitswürfe für Arkane Künste, Handwerkskunst, Okkultismus und Gesellschaftskunde</li>\n<li>+1 Gegenstandsbonus auf alle Fertigkeitswürfe zum Wissen abrufen</li>\n<li>-2 auf Waffenangriffe und Waffenlose Angriffswürfe</li>\n<li>-2 auf Fertigkeitswürfe für Athletik und Akrobatik</li>\n</ul>\n<p><strong>Nicht implementierte Effekte:</strong></p>\n<ul>\n<li>+1 Gegenstandsbonus auf Fertigkeitswürfe für Kenntnis</li>\n<li>deine Kritischen Fehlschläge bei Wissen abrufen werden stattdessen zu Fehlschlägen</li>\n<li>du kannst 2 Lasteinheiten weniger als üblich tragen, bevor du den Zustand Belastet erlangst</li>\n<li>die Maximallast, die du tragen kannst, verringert sich um 4</li>\n</ul>"
        },
        "Effect: Cognitive Mutagen (Major)": {
            "name": "Effekt: Kognitivmutagen (Mächtig)",
            "description": "<p>Gewährt durch @Compendium[pf2e.equipment-srd.VBK9i74dry8yf8f0]{Kognitivmutagen (Mächtig)}</p>\n<p><strong>Implementierte Effekte:</strong></p>\n<ul>\n<li>+4 Gegenstandsbonus auf Fertigkeitswürfe für Arkane Künste, Handwerkskunst, Okkultismus und Gesellschaftskunde</li>\n<li>+4 Gegenstandsbonus auf alle Fertigkeitswürfe zum Wissen abrufen</li>\n<li>-2 auf Waffenangriffe und Waffenlose Angriffswürfe</li>\n<li>-2 auf Fertigkeitswürfe für Athletik und Akrobatik</li>\n</ul>\n<p><strong>Nicht implementierte Effekte:</strong></p>\n<ul>\n<li>+4 Gegenstandsbonus auf Fertigkeitswürfe für Kenntnis</li>\n<li>deine Kritischen Fehlschläge bei Wissen abrufen werden stattdessen zu Fehlschlägen</li>\n<li>du kannst 2 Lasteinheiten weniger als üblich tragen, bevor du den Zustand Belastet erlangst</li>\n<li>die Maximallast, die du tragen kannst, verringert sich um 4</li>\n</ul>"
        },
        "Effect: Cognitive Mutagen (Moderate)": {
            "name": "Effekte: Kognitivmutagen (Einfach)",
            "description": "<p>Gewährt durch @Compendium[pf2e.equipment-srd.qpzL9UnTi4cDhy6J]{Kognitivmutagen (Einfach)}</p>\n<p><strong>Implementierte Effekte:</strong></p>\n<ul>\n<li>+2 Gegenstandsbonus auf Fertigkeitswürfe für Arkane Künste, Handwerkskunst, Okkultismus und Gesellschaftskunde</li>\n<li>+2 Gegenstandsbonus auf alle Fertigkeitswürfe zum Wissen abrufen</li>\n<li>-2 auf Waffenangriffe und Waffenlose Angriffswürfe</li>\n<li>-2 auf Fertigkeitswürfe für Athletik und Akrobatik</li>\n</ul>\n<p><strong>Nicht implementierte Effekte:</strong></p>\n<ul>\n<li>+2 Gegenstandsbonus auf Fertigkeitswürfe für Kenntnis</li>\n<li>deine Kritischen Fehlschläge bei Wissen abrufen werden stattdessen zu Fehlschlägen</li>\n<li>du kannst 2 Lasteinheiten weniger als üblich tragen, bevor du den Zustand Belastet erlangst</li>\n<li>die Maximallast, die du tragen kannst, verringert sich um 4</li>\n</ul>"
        },
        "Effect: Darkvision Elixir (Greater)": {
            "name": "Effekt: Dunkelsichtelixier (Stark)",
            "description": "<p>Gewährt durch @Compendium[pf2e.equipment-srd.bz8Y8bVUe7QfBk9g]{Dunkelsichtelixier (Stark)}</p>\n<p>Implementierte Effekte:</p>\n<ul>\n<li>Du erhältst Dunkelsicht</li>\n</ul>"
        },
        "Effect: Darkvision Elixir (Lesser)": {
            "name": "Effekt: Dunkelsichtelixier (Schwach)",
            "description": "<p>Gewährt durch @Compendium[pf2e.equipment-srd.88pGCHV0uKMskTVO]{Dunkelsichtelixier (Schwach)}</p>\n<p>Implementierte Effekte:</p>\n<ul>\n<li>Du erhältst Dunkelsicht</li>\n</ul>"
        },
        "Effect: Darkvision Elixir (Moderate)": {
            "name": "Effekt: Dunkelsichtelixier (Einfach)",
            "description": "<p>Gewährt durch @Compendium[pf2e.equipment-srd.Y8115p3cmQJBqk5d]{Dunkelsichtelixier (Einfach)}</p>\n<p>Implementierte Effekte:</p>\n<ul>\n<li>Du erhältst Dunkelsicht</li>\n</ul>"
        },
        "Effect: Dragon Turtle Scale": {
            "name": "Effekt: Drachenschildkrötenschuppe",
            "description": "<p>Gewährt durch @Compendium[pf2e.equipment-srd.GnXKCkgZQG0UmuHz]{Drachenschildkrötenschuppe}</p>\n<hr />\n<p>Automatisch angewendete Effekte:</p>\n<ul>\n<li>erhalte eine Bewegungsrate für Schwimmen in Höhe deiner halben Bewegungsrate am Boden</li>\n</ul>"
        },
        "Effect: Drakeheart Mutagen (Greater)": {
            "name": "Effekt: Drakaherzmutagen (Stark)",
            "description": "<p>Gewährt durch @Compendium[pf2e.equipment-srd.WuzLBK78DgIt8SsN]{Drakaherzmutagen (Stark)}</p>\n<p><strong>Implementierte Effekte:</strong></p>\n<ul>\n<li>+6 Gegenstandsbonus auf Rüstungsklasse</li>\n<li>Geschicklichkeits-Limit von +2 </li>\n<li>+3 Gegenstandsbonus auf Wahrnehmung</li>\n<li>Malus von -1 auf Willenswürfe, Reflexwürfe und Fertigkeitswürfe zum Wissen abrufen</li>\n</ul>\n<p><strong>Nicht implementierte Effekte:</strong></p>\n<ul>\n<li>Du erhältst die Aktion Endspurt</li>\n</ul>"
        },
        "Effect: Drakeheart Mutagen (Lesser)": {
            "name": "Effekt: Drakaherzmutagen (Schwach)",
            "description": "<p>Gewährt durch @Compendium[pf2e.equipment-srd.GS4YvQieBS11JNYR]{Drakaherzmutagen (Schwach)}</p>\n<p><strong>Implementierte Effekte:</strong></p>\n<ul>\n<li>+4 Gegenstandsbonus auf Rüstungsklasse</li>\n<li>Geschicklichkeits-Limit von +2 </li>\n<li>+1 Gegenstandsbonus auf Wahrnehmung</li>\n<li>Malus von -1 auf Willenswürfe, Reflexwürfe und Fertigkeitswürfe zum Wissen abrufen</li>\n</ul>\n<p><strong>Nicht implementierte Effekte:</strong></p>\n<ul>\n<li>Du erhältst die Aktion Endspurt</li>\n</ul>"
        },
        "Effect: Drakeheart Mutagen (Major)": {
            "name": "Effekt: Drakaherzmutagen (Mächtig)",
            "description": "<p>Gewährt durch @Compendium[pf2e.equipment-srd.M4ZOHOlne43ArjOC]{Drakaherzmutagen (Mächtig)}</p>\n<p><strong>Implementierte Effekte:</strong></p>\n<ul>\n<li>+7 Gegenstandsbonus auf Rüstungsklasse</li>\n<li>Geschicklichkeits-Limit von +2 </li>\n<li>+4 Gegenstandsbonus auf Wahrnehmung</li>\n<li>Malus von -1 auf Willenswürfe, Reflexwürfe und Fertigkeitswürfe zum Wissen abrufen</li>\n</ul>\n<p><strong>Nicht implementierte Effekte:</strong></p>\n<ul>\n<li>Du erhältst die Aktion Endspurt</li>\n</ul>"
        },
        "Effect: Drakeheart Mutagen (Moderate)": {
            "name": "Effekt: Drakaherzmutagen (Durchschnittlich)",
            "description": "<p>Gewährt durch @Compendium[pf2e.equipment-srd.xY2MogTwH9Fd8UPG]{Drakaherzmutagen (Durchschnittlich)}</p>\n<p><strong>Implementierte Effekte:</strong></p>\n<ul>\n<li>+5 Gegenstandsbonus auf Rüstungsklasse</li>\n<li>Geschicklichkeits-Limit von +2 </li>\n<li>+2 Gegenstandsbonus auf Wahrnehmung</li>\n<li>Malus von -1 auf Willenswürfe, Reflexwürfe und Fertigkeitswürfe zum Wissen abrufen</li>\n</ul>\n<p><strong>Nicht implementierte Effekte:</strong></p>\n<ul>\n<li>Du erhältst die Aktion Endspurt</li>\n</ul>"
        },
        "Effect: Eagle Eye Elixir (Greater)": {
            "name": "Effekt: Adleraugenelixier (Stark)",
            "description": "<p>Gewährt durch @Compendium[pf2e.equipment-srd.xWCdsGSwLLTeX6tQ]{Adleraugenelixier (Stark)}</p>\n<p>Implementierte Effekte:</p>\n<ul>\n<li>+3 Gegenstandsbonus auf Wahrnehmungswürfe</li>\n<li>+4 Gegenstandsbonus auf Wahrnehmungswürfe um Geheimtüren und Fallen aufzuspüren</li>\n</ul>"
        },
        "Effect: Eagle Eye Elixir (Lesser)": {
            "name": "Effekt: Adleraugenelixier (Schwach)",
            "description": "<p>Gewährt durch @Compendium[pf2e.equipment-srd.7Y2yOr4ltpP2tyuL]{Adleraugenelixier (Schwach)}</p>\n<p>Implementierte Effekte:</p>\n<ul>\n<li>+1 Gegenstandsbonus auf Wahrnehmungswürfe</li>\n<li>+2 Gegenstandsbonus auf Wahrnehmungswürfe um Geheimtüren und Fallen aufzuspüren</li>\n</ul>"
        },
        "Effect: Eagle Eye Elixir (Major)": {
            "name": "Effekt: Adleraugenelixier (Mächtig)",
            "description": "<p>Gewährt durch @Compendium[pf2e.equipment-srd.kicNrnZz1KjJYRVI]{Adleraugenelixier (Mächtig)}</p>\n<p>Implementierte Effekte:</p>\n<ul>\n<li>+3 Gegenstandsbonus auf Wahrnehmungswürfe</li>\n<li>+4 Gegenstandsbonus auf Wahrnehmungswürfe um Geheimtüren und Fallen aufzuspüren</li>\n</ul>\n<p>Nicht implementierte Effekte:</p>\n<ul>\n<li>Jedes Mal, wenn du im Umkreis von 3 m an einer Geheimtür oder Falle vorbeikommst, führt der SL automatisch einen Verdeckten Wurf aus, ob du diese entdeckst.</li>\n</ul>"
        },
        "Effect: Eagle Eye Elixir (Moderate)": {
            "name": "Effekt: Adleraugenelixier (Einfach)",
            "description": "<p>Gewährt durch @Compendium[pf2e.equipment-srd.lPcnDlBGz5QwCMYw]{Adleraugenelixier (Einfach)}</p>\n<p>Implementierte Effekte:</p>\n<ul>\n<li>+2 Gegenstandsbonus auf Wahrnehmungswürfe</li>\n<li>+3 Gegenstandsbonus auf Wahrnehmungswürfe um Geheimtüren und Fallen aufzuspüren</li>\n</ul>"
        },
        "Effect: Elixir of Life (Greater)": {
            "name": "Effekt: Lebenselixier (Stark)",
            "description": "<p>Gewährt durch @Compendium[pf2e.equipment-srd.mYozcVg9fQY6zO7C]{Lebenselixier (Stark)}</p>\n<p>Implementierte Effekte:</p>\n<ul>\n<li>+2 Gegenstandsbonus auf Rettungswürfe gegen Krankheiten und Gifte</li>\n</ul>\n<p>Nicht implementierte Effekte:</p>\n<ul>\n<li>stellt [[/r {7d6+18}[healing]]]{7W6+18 Trefferpunkte} wieder her</li>\n</ul>"
        },
        "Effect: Elixir of Life (Lesser)": {
            "name": "Effekt: Lebenselixier (Schwach)",
            "description": "<p>Gewährt durch @Compendium[pf2e.equipment-srd.TZUskLT7yvP7N2co]{Lebenselixier (Schwach)}</p>\n<p>Implementierte Effekte:</p>\n<ul>\n<li>+1 Gegenstandsbonus auf Rettungswürfe gegen Krankheiten und Gifte</li>\n</ul>\n<p>Nicht implementierte Effekte:</p>\n<ul>\n<li>stellt [[/r {3d6+6}[healing]]]{3W6+6 Trefferpunkte} wieder her</li>\n</ul>"
        },
        "Effect: Elixir of Life (Major)": {
            "name": "Effekt: Lebenselixier (Mächtig)",
            "description": "<p>Gewährt durch @Compendium[pf2e.equipment-srd.AmxSqEoFhRLMYd1W]{Lebenselixier (Mächtig)}</p>\n<p>Implementierte Effekte:</p>\n<ul>\n<li>+3 Gegenstandsbonus auf Rettungswürfe gegen Krankheiten und Gifte</li>\n</ul>\n<p>Nicht implementierte Effekte:</p>\n<ul>\n<li>stellt [[/r {8d6+21}[healing]]]{8W6+21 Trefferpunkte} wieder her</li>\n</ul>"
        },
        "Effect: Elixir of Life (Minor)": {
            "name": "Effekt: Lebenselixier (Gering)",
            "description": "<p>Gewährt durch @Compendium[pf2e.equipment-srd.hDLbR56Id2OtU318]{Lebenselixier (Gering)}</p>\n<p>Implementierte Effekte:</p>\n<ul>\n<li>+1 Gegenstandsbonus auf Rettungswürfe gegen Krankheiten und Gifte</li>\n</ul>\n<p>Nicht implementierte Effekte:</p>\n<ul>\n<li>stellt [[/r {1d6}[healing]]]{1W6 Trefferpunkte} wieder her</li>\n</ul>"
        },
        "Effect: Elixir of Life (Moderate)": {
            "name": "Effekt: Lebenselixier (Einfach)",
            "description": "<p>Gewährt durch @Compendium[pf2e.equipment-srd.c21stU5rhN4F2fZl]{Lebenselixier (Einfach)}</p>\n<p>Implementierte Effekte:</p>\n<ul>\n<li>+2 Gegenstandsbonus auf Rettungswürfe gegen Krankheiten und Gifte</li>\n</ul>\n<p>Nicht implementierte Effekte:</p>\n<ul>\n<li>stellt [[/r {5d6+12}[healing]]]{5W6+12 Trefferpunkte} wieder her</li>\n</ul>"
        },
        "Effect: Elixir of Life (True)": {
            "name": "Effekt: Lebenselixier (Wahr)",
            "description": "<p>Gewährt durch @Compendium[pf2e.equipment-srd.qK964kZz1ALcysOa]{Lebenselixier (Wahr)}</p>\n<p>Implementierte Effekte:</p>\n<ul>\n<li>+4 Gegenstandsbonus auf Rettungswürfe gegen Krankheiten und Gifte</li>\n</ul>\n<p>Nicht implementierte Effekte:</p>\n<ul>\n<li>stellt [[/r {10d6+27}[healing]]]{10W6+27 Trefferpunkte} wieder her</li>\n</ul>"
        },
        "Effect: Gecko Potion": {
            "name": "Effekt: Geckotrank",
            "description": "<p>Gewährt durch @Compendium[pf2e.equipment-srd.hGw7Q1y2IEXRGAfv]{Geckotrank}</p>\n<hr />\n<p>Implementierte Effekte:</p>\n<ul>\n<li>+1 auf Fertigkeitswürfe für @Compendium[pf2e.actionspf2e.pprgrYQ1QnIDGZiy]{Klettern}</li>\n<li>+1 auf Fertigkeitswürfe für Diebeskunst zum @Compendium[pf2e.actionspf2e.ijZ0DDFpMkWqaShd]{Gegenstand einstecken}</li>\n<li>+1 Gegenstandsbonus auf Reflex-SG gegen @Compendium[pf2e.actionspf2e.Dt6B1slsBy8ipJu9]{Entwaffnungsversuche}</li>\n</ul>"
        },
        "Effect: Juggernaut Mutagen (Greater)": {
            "name": "Effekt: Abhärtungsmutagen (Stark)",
            "description": "<p>Gewährt durch @Compendium[pf2e.equipment-srd.TMtQnY6yvIRCpK9v]{Abhärtungsmutagen (Stark)}</p>\n<p>Implementierte Effekte:</p>\n<ul>\n<li>+3 Gegenstandsbonus auf Zähigkeitswürfe</li>\n<li>+30 Temporäre Trefferpunkten</li>\n<li>-2 auf Willenswürfe, Wahrnehmungswürfe und Initiativewürfe</li>\n</ul>\n<p>Nicht implementierte Effekte:</p>\n<ul>\n<li>Wann auch immer du für mindestens 1 volle Minute maximale Trefferpunkte besitzt, gewinnst du diese Temporären Trefferpunkte zurück.</li>\n</ul>"
        },
        "Effect: Juggernaut Mutagen (Lesser)": {
            "name": "Effekt: Abhärtungsmutagen (Schwach)",
            "description": "<p>Gewährt durch @Compendium[pf2e.equipment-srd.xE0EdDrf734l2fQH]{Abhärtungsmutagen (Schwach)}</p>\n<p>Implementierte Effekte:</p>\n<ul>\n<li>+1 Gegenstandsbonus auf Zähigkeitswürfe</li>\n<li>+5 Temporäre Trefferpunkten</li>\n<li>-2 auf Willenswürfe, Wahrnehmungswürfe und Initiativewürfe</li>\n</ul>\n<p>Nicht implementierte Effekte:</p>\n<ul>\n<li>Wann auch immer du für mindestens 1 volle Minute maximale Trefferpunkte besitzt, gewinnst du diese Temporären Trefferpunkte zurück.</li>\n</ul>"
        },
        "Effect: Juggernaut Mutagen (Major)": {
            "name": "Effekt: Abhärtungsmutagen (Mächtig)",
            "description": "<p>Gewährt durch @Compendium[pf2e.equipment-srd.1kNp6yOS0aZPBPzZ]{Abhärtungsmutagen (Mächtig)}</p>\n<p>Implementierte Effekte:</p>\n<ul>\n<li>+4 Gegenstandsbonus auf Zähigkeitswürfe</li>\n<li>+45 Temporäre Trefferpunkten</li>\n<li>-2 auf Willenswürfe, Wahrnehmungswürfe und Initiativewürfe</li>\n</ul>\n<p>Nicht implementierte Effekte:</p>\n<ul>\n<li>Wann auch immer du für mindestens 1 volle Minute maximale Trefferpunkte besitzt, gewinnst du diese Temporären Trefferpunkte zurück.</li>\n</ul>"
        },
        "Effect: Juggernaut Mutagen (Moderate)": {
            "name": "Effekt: Abhärtungsmutagen (Einfach)",
            "description": "<p>Gewährt durch @Compendium[pf2e.equipment-srd.mj9i9GeQTADByNPZ]{Abhärtungsmutagen (Einfach)}</p>\n<p>Implementierte Effekte:</p>\n<ul>\n<li>+2 Gegenstandsbonus auf Zähigkeitswürfe</li>\n<li>+10 Temporäre Trefferpunkten</li>\n<li>-2 auf Willenswürfe, Wahrnehmungswürfe und Initiativewürfe</li>\n</ul>\n<p>Nicht implementierte Effekte:</p>\n<ul>\n<li>Wann auch immer du für mindestens 1 volle Minute maximale Trefferpunkte besitzt, gewinnst du diese Temporären Trefferpunkte zurück.</li>\n</ul>"
        },
        "Effect: Lastwall Soup": {
            "name": "Effekt: Finismur-Suppe",
            "description": "<p>Gewährt durch @Compendium[pf2e.equipment-srd.VeCNWhvEr82ZNoSV]{Finismur-Suppe}</p>\n<p>Implementierte Effekte:</p>\n<ul>\n<li>Gegenstandsbonus von +2 auf Fertigkeitswürfe für Heimlichkeit gegen Untote</li>\n</ul>\n<p>Nicht implementierte Effekte:</p>\n<ul>\n<li>Gegenstandsbonus von +2 auf Heimlichkeit SG gegen Untote</li>\n</ul>"
        },
        "Effect: Potion of Flying (Greater)": {
            "name": "Effekt: Flugtrank (Stark)",
            "description": "<p>Gewährt durch @Compendium[pf2e.equipment-srd.E999hL7XlAlfZhjK]{Flugtrank (Stark)}</p>\n<p>Automatisch angewandte Effekte:</p>\n<ul>\n<li>Du erhältst eine Bewegungsrate für Fliegen von 12 m</li>\n</ul>"
        },
        "Effect: Potion of Flying (Standard)": {
            "name": "Effekt: Flugtrank (Einfach)",
            "description": "<p>Gewährt durch @Compendium[pf2e.equipment-srd.KlJSw919hpN6V9oK]{Flugtrank (Einfach)}.</p>\n<p>Automatisch angewandte Effekte:</p>\n<ul>\n<li>Du erhältst eine Bewegungsrate für Fliegen von 12 m</li>\n</ul>"
        },
        "Effect: Potion of Swimming (Greater)": {
            "name": "Effekt: Schwimmtrank (Stark)",
            "description": "<p>Gewährt durch @Compendium[pf2e.equipment-srd.OMJgFmy3jut79Iaj]{Schwimmtrank (Stark)}</p>\n<p>Automatisch angewandte Effekte:</p>\n<ul>\n<li>Du erhältst eine Bewegungsrate für Schwimmen gleich deiner Bewegungsrate für Land</li>\n</ul>"
        },
        "Effect: Potion of Swimming (Moderate)": {
            "name": "Effekt: Schwimmtrank (Einfach)",
            "description": "<p>Gewährt durch @Compendium[pf2e.equipment-srd.Eb4dEuV22QVlMumS]{Schwimmtrank (Einfach)}</p>\n<p>Automatisch angewandte Effekte:</p>\n<ul>\n<li>Du erhältst eine Bewegungsrate für Schwimmen gleich deiner Bewegungsrate für Land</li>\n</ul>"
        },
        "Effect: Quicksilver Mutagen (Greater)": {
            "name": "Effekt: Flinkheitsmutagen (Stark)",
            "description": "<p>Gewährt durch @Compendium[pf2e.equipment-srd.eQDTsetadI8u8Kc0]{Flinkheitsmutagen (Stark)}</p>\n<p>Implementierte Effekte:</p>\n<ul>\n<li>+3 Gegenstandsbonus auf Fertigkeitswürfe für Akrobatik, Diebeskunst und Heimlichkeit</li>\n<li>+3 Gegenstandsbonus auf Reflexwürfe</li>\n<li>+3 Gegenstandsbonus auf Fernkampfangriffswürfe</li>\n<li>+4,50 m Zustandsbonus auf deine Bewegungsrate</li>\n<li>Malus -2 auf Zähigkeitswürfe</li>\n</ul>\n<p>Nicht implementierte Effekte:</p>\n<ul>\n<li>Du nimmst Schaden in Höhe des Doppelten deiner Stufe. Trefferpunkte, die du auf diese Weise verloren hast, kannst du auf keine Weise regenerieren, solange das Mutagen wirkt.</li>\n</ul>"
        },
        "Effect: Quicksilver Mutagen (Lesser)": {
            "name": "Effekt: Flinkheitsmutagen (Schwach)",
            "description": "<p>Gewährt durch @Compendium[pf2e.equipment-srd.5MKBwpE401uz4kNN]{Flinkheitsmutagen (Schwach)}</p>\n<p>Implementierte Effekte:</p>\n<ul>\n<li>+1 Gegenstandsbonus auf Fertigkeitswürfe für Akrobatik, Diebeskunst und Heimlichkeit</li>\n<li>+1 Gegenstandsbonus auf Reflexwürfe</li>\n<li>+1 Gegenstandsbonus auf Fernkampfangriffswürfe</li>\n<li>+1,50 m Zustandsbonus auf deine Bewegungsrate</li>\n<li>Malus -2 auf Zähigkeitswürfe</li>\n</ul>\n<p>Nicht implementierte Effekte:</p>\n<ul>\n<li>Du nimmst Schaden in Höhe des Doppelten deiner Stufe. Trefferpunkte, die du auf diese Weise verloren hast, kannst du auf keine Weise regenerieren, solange das Mutagen wirkt.</li>\n</ul>"
        },
        "Effect: Quicksilver Mutagen (Major)": {
            "name": "Effekt: Flinkheitsmutagen (Mächtig)",
            "description": "<p>Gewährt durch @Compendium[pf2e.equipment-srd.4GXzTN6iSDGfYEAi]{Flinkheitsmutagen (Mächtig)}</p>\n<p>Implementierte Effekte:</p>\n<ul>\n<li>+4 Gegenstandsbonus auf Fertigkeitswürfe für Akrobatik, Diebeskunst und Heimlichkeit</li>\n<li>+4 Gegenstandsbonus auf Reflexwürfe</li>\n<li>+4 Gegenstandsbonus auf Fernkampfangriffswürfe</li>\n<li>+6 m Zustandsbonus auf deine Bewegungsrate</li>\n<li>Malus -2 auf Zähigkeitswürfe</li>\n</ul>\n<p>Nicht implementierte Effekte:</p>\n<ul>\n<li>Du nimmst Schaden in Höhe des Doppelten deiner Stufe. Trefferpunkte, die du auf diese Weise verloren hast, kannst du auf keine Weise regenerieren, solange das Mutagen wirkt.</li>\n</ul>"
        },
        "Effect: Quicksilver Mutagen (Moderate)": {
            "name": "Effekt: Flinkheitsmutagen (Einfach)",
            "description": "<p>Gewährt durch @Compendium[pf2e.equipment-srd.n52BSbZsnx4Vmt2p]{Flinkheitsmutagen (Einfach)}</p>\n<p>Implementierte Effekte:</p>\n<ul>\n<li>+2 Gegenstandsbonus auf Fertigkeitswürfe für Akrobatik, Diebeskunst und Heimlichkeit</li>\n<li>+2 Gegenstandsbonus auf Reflexwürfe</li>\n<li>+2 Gegenstandsbonus auf Fernkampfangriffswürfe</li>\n<li>+3 m Zustandsbonus auf deine Bewegungsrate</li>\n<li>Malus -2 auf Zähigkeitswürfe</li>\n</ul>\n<p>Nicht implementierte Effekte:</p>\n<ul>\n<li>Du nimmst Schaden in Höhe des Doppelten deiner Stufe. Trefferpunkte, die du auf diese Weise verloren hast, kannst du auf keine Weise regenerieren, solange das Mutagen wirkt.</li>\n</ul>"
        },
        "Effect: Salve of Slipperiness": {
            "name": "Effekt: Schmieröl",
            "description": "<p>Gewährt durch @Compendium[pf2e.equipment-srd.MobYbxEL4KgxVi63]{Schmieröl}</p>\n<hr />\n<p>Automatisch angewandte Effekte:</p>\n<ul>\n<li>Gegenstandsbonus von +2 auf Fertigkeitswürfe für Akrobatik zum Entkommen oder Hindurchzwängen</li>\n</ul>"
        },
        "Effect: Sea Touch Elixir (Greater)": {
            "name": "Effekt: Schwimmhautelixier (Stark)",
            "description": "<p>Gewährt durch @Compendium[pf2e.equipment-srd.i4D4B7tpYv9vMvQY]{Schwimmhautelixier (Stark)}</p>\n<hr />\n<p>Automatisch angewendete Effekte:</p>\n<ul>\n<li>Erhalte eine Bewegungsrate für Schwimmen von 6 m</li>\n</ul>"
        },
        "Effect: Sea Touch Elixir (Lesser)": {
            "name": "Effekt: Schwimmhautelixier (Schwach)",
            "description": "<p>Gewährt durch @Compendium[pf2e.equipment-srd.zcJgT5RS8p2MEbOB]{Schwimmhautelixier (Schwach)}</p>\n<hr />\n<p>Automatisch angewendete Effekte:</p>\n<ul>\n<li>Erhalte eine Bewegungsrate für Schwimmen von 6 m</li>\n</ul>"
        },
        "Effect: Sea Touch Elixir (Moderate)": {
            "name": "Effekt: Schwimmhautelixier (Einfach)",
            "description": "<p>Gewährt durch @Compendium[pf2e.equipment-srd.2hc1EEcb3pfr7Hac]{Schwimmhautelixier (Einfach)}</p>\n<hr />\n<p>Automatisch angewendete Effekte:</p>\n<ul>\n<li>Erhalte eine Bewegungsrate für Schwimmen von 6 m</li>\n</ul>"
        },
        "Effect: Serene Mutagen (Greater)": {
            "name": "Effekt: Gleichmutsmutagen (Stark)",
            "description": "<p>Gewährt durch @Compendium[pf2e.equipment-srd.Yej7lnnDYDZybGqo]{Gleichmutsmutagen (Stark)}</p>\n<p>Implementierte Effekte:</p>\n<ul>\n<li>+3 Gegenstandsbonus auf Willens- und Wahrnehmungswürfe</li>\n<li>+4 Gegenstandsbonus auf Willenswürfe gegen mentale Effekte</li>\n<li>+3 Gegenstandsbonus auf Fertigkeitswürfe für Heilkunde, Naturkunde, Religionskunde und Überlebenskunst</li>\n<li>Malus von -1 auf Angriffswürfe</li>\n</ul>\n<p>Nicht implementierte Effekte:</p>\n<ul>\n<li>Malus von -1 auf den SG der Rettungswürfe gegen deine Angriffszauber</li>\n<li>Malus von -1 pro Schadenswürfel auf den Schaden von Waffenangriffen, Waffenlosen Angriffen und Schadenszaubern</li>\n<li>Wenn du bei einem Willenswurf gegen einen mentalen Effekt einen Erfolg erzielst, zählt das Ergebnis stattdessen als Kritischer Erfolg.</li>\n</ul>"
        },
        "Effect: Serene Mutagen (Lesser)": {
            "name": "Effekt: Gleichmutsmutagen (Schwach)",
            "description": "<p>Gewährt durch @Compendium[pf2e.equipment-srd.bOPQDM54W8ZDoULY]{Gleichmutsmutagen (Schwach)}</p>\n<p>Implementierte Effekte:</p>\n<ul>\n<li>+1 Gegenstandsbonus auf Willens- und Wahrnehmungswürfe</li>\n<li>+2 Gegenstandsbonus auf Willenswürfe gegen mentale Effekte</li>\n<li>+1 Gegenstandsbonus auf Fertigkeitswürfe für Heilkunde, Naturkunde, Religionskunde und Überlebenskunst</li>\n<li>Malus von -1 auf Angriffswürfe</li>\n</ul>\n<p>Nicht implementierte Effekte:</p>\n<ul>\n<li>Malus von -1 auf den SG der Rettungswürfe gegen deine Angriffszauber</li>\n<li>Malus von -1 pro Schadenswürfel auf den Schaden von Waffenangriffen, Waffenlosen Angriffen und Schadenszaubern</li>\n</ul>"
        },
        "Effect: Serene Mutagen (Major)": {
            "name": "Effekt: Gleichmutsmutagen (Mächtig)",
            "description": "<p>Gewährt durch @Compendium[pf2e.equipment-srd.ccrdVliTNBh2mNZf]{Gleichmutsmutagen (Mächtig)}</p>\n<p>Implementierte Effekte:</p>\n<ul>\n<li>+4 Gegenstandsbonus auf Willens- und Wahrnehmungswürfe</li>\n<li>+5 Gegenstandsbonus auf Willenswürfe gegen mentale Effekte</li>\n<li>+4 Gegenstandsbonus auf Fertigkeitswürfe für Heilkunde, Naturkunde, Religionskunde und Überlebenskunst</li>\n<li>Malus von -1 auf Angriffswürfe</li>\n</ul>\n<p>Nicht implementierte Effekte:</p>\n<ul>\n<li>Malus von -1 auf den SG der Rettungswürfe gegen deine Angriffszauber</li>\n<li>Malus von -1 pro Schadenswürfel auf den Schaden von Waffenangriffen, Waffenlosen Angriffen und Schadenszaubern</li>\n<li>wenn du bei einem Willenswurf gegen einen mentalen Effekt einen Erfolg erzielst, zählt das Ergebnis stattdessen als Kritischer Erfolg</li>\n<li>deine Kritischen Fehlschläge bei Willenswürfen gegen mentale Effekte zählen stattdessen als normale Fehlschläge</li>\n</ul>"
        },
        "Effect: Serene Mutagen (Moderate)": {
            "name": "Effekt: Gleichmutsmutagen (Einfach)",
            "description": "<p>Gewährt durch @Compendium[pf2e.equipment-srd.XEYveTvLH1lJ4jeI]{Gleichmutsmutagen (Einfach)}</p>\n<p>Implementierte Effekte:</p>\n<ul>\n<li>+2 Gegenstandsbonus auf Willens- und Wahrnehmungswürfe</li>\n<li>+3 Gegenstandsbonus auf Willenswürfe gegen mentale Effekte</li>\n<li>+2 Gegenstandsbonus auf Fertigkeitswürfe für Heilkunde, Naturkunde, Religionskunde und Überlebenskunst</li>\n<li>Malus von -1 auf Angriffswürfe</li>\n</ul>\n<p>Nicht implementierte Effekte:</p>\n<ul>\n<li>Malus von -1 auf den SG der Rettungswürfe gegen deine Angriffszauber</li>\n<li>Malus von -1 pro Schadenswürfel auf den Schaden von Waffenangriffen, Waffenlosen Angriffen und Schadenszaubern</li>\n</ul>"
        },
        "Effect: Shielding Salve": {
            "name": "Effekt: Schildsalbe",
            "description": "<p>Gewährt durch @Compendium[pf2e.equipment-srd.EWujUs3YmlBu2jhm]{Schildsalbe}</p>\n<hr />\n<p>Automatisch angewandte Effekte:</p>\n<ul>\n<li>das Ziel erhält einen Situationsbonus von +1 auf RK</li>\n</ul>"
        },
        "Effect: Shrinking Potion (Greater)": {
            "name": "Effekte: Schrumpftrank (Stark)",
            "description": "<p>Gewährt durch @Compendium[pf2e.equipment-srd.5xsfj30uXMKINxnk]{Schrumpftrank (Stark)}</p>\n<hr />\n<p>Automatisch angewandte Effekte:</p>\n<ul>\n<li>Gegenstandbonus von +2 auf Fertigkeitswürfe für Heimlichkeit</li>\n</ul>"
        },
        "Effect: Silvertongue Mutagen (Greater)": {
            "name": "Effekt: Silberzungenmutagen (Stark)",
            "description": "<p>Gewährt durch @Compendium[pf2e.equipment-srd.uggpIk6vguWFXVli]{Silberzungenmutagen (Stark)}</p>\n<p>Implementierte Effekte:</p>\n<ul>\n<li>+3 Gegenstandsbonus auf Fertigkeitswürfe für Darbietung, Diplomatie, Einschüchtern und Täuschung</li>\n<li>Gegenstandsmalus von -2 auf Fertigkeitswürfe für Arkane Künste, Gesellschaftskunde, Handwerkskunst und Okkultismus</li>\n</ul>\n<p>Nicht implementierte Effekte:</p>\n<ul>\n<li>deine Kritischen Fehlschläge bei jeder der o.a. Fertigkeiten zählen stattdessen als normale Fehlschlägen</li>\n<li>Gegenstandsmalus von -2 auf Kenntnis</li>\n<li>werde ungeübt in einer Fertigkeit in der du geübt bist</li>\n<li>all deine Fehlschläge bei Würfen zum Wissen abrufen zählen als Kritische Fehlschläge</li>\n</ul>"
        },
        "Effect: Silvertongue Mutagen (Lesser)": {
            "name": "Effekt: Silberzungenmutagen (Schwach)",
            "description": "<p>Gewährt durch @Compendium[pf2e.equipment-srd.YwRAHWW8yUI07sy9]{Silberzungenmutagen (Schwach)}</p>\n<p>Implementierte Effekte:</p>\n<ul>\n<li>+1 Gegenstandsbonus auf Fertigkeitswürfe für Darbietung, Diplomatie, Einschüchtern und Täuschung</li>\n<li>Gegenstandsmalus von -2 auf Fertigkeitswürfe für Arkane Künste, Gesellschaftskunde, Handwerkskunst und Okkultismus</li>\n</ul>\n<p>Nicht implementierte Effekte:</p>\n<ul>\n<li>deine Kritischen Fehlschläge bei jeder der o.a. Fertigkeiten zählen stattdessen als normale Fehlschlägen</li>\n<li>Gegenstandsmalus von -2 auf Kenntnis</li>\n<li>werde ungeübt in einer Fertigkeit in der du geübt bist</li>\n<li>all deine Fehlschläge bei Würfen zum Wissen abrufen zählen als Kritische Fehlschläge</li>\n</ul>"
        },
        "Effect: Silvertongue Mutagen (Major)": {
            "name": "Effekt: Silberzungenmutagen (Mächtig)",
            "description": "<p>Gewährt durch @Compendium[pf2e.equipment-srd.uD5vRYVOXNJ53sEE]{Silberzungenmutagen (Mächtig)}</p>\n<p>Implementierte Effekte:</p>\n<ul>\n<li>+4 Gegenstandsbonus auf Fertigkeitswürfe für Darbietung, Diplomatie, Einschüchtern und Täuschung</li>\n<li>Gegenstandsmalus von -2 auf Fertigkeitswürfe für Arkane Künste, Gesellschaftskunde, Handwerkskunst und Okkultismus</li>\n</ul>\n<p>Nicht implementierte Effekte:</p>\n<ul>\n<li>deine Kritischen Fehlschläge bei jeder der o.a. Fertigkeiten zählen stattdessen als normale Fehlschlägen</li>\n<li>Gegenstandsmalus von -2 auf Kenntnis</li>\n<li>werde ungeübt in einer Fertigkeit in der du geübt bist</li>\n<li>all deine Fehlschläge bei Würfen zum Wissen abrufen zählen als Kritische Fehlschläge</li>\n</ul>"
        },
        "Effect: Silvertongue Mutagen (Moderate)": {
            "name": "Effekt: Silberzungenmutagen (Einfach)",
            "description": "<p>Gewährt durch @Compendium[pf2e.equipment-srd.lIExlUFBKvBue8hb]{Silberzungenmutagen (Einfach)}</p>\n<p>Implementierte Effekte:</p>\n<ul>\n<li>+2 Gegenstandsbonus auf Fertigkeitswürfe für Darbietung, Diplomatie, Einschüchtern und Täuschung</li>\n<li>Gegenstandsmalus von -2 auf Fertigkeitswürfe für Arkane Künste, Gesellschaftskunde, Handwerkskunst und Okkultismus</li>\n</ul>\n<p>Nicht implementierte Effekte:</p>\n<ul>\n<li>deine Kritischen Fehlschläge bei jeder der o.a. Fertigkeiten zählen stattdessen als normale Fehlschlägen</li>\n<li>Gegenstandsmalus von -2 auf Kenntnis</li>\n<li>werde ungeübt in einer Fertigkeit in der du geübt bist</li>\n<li>all deine Fehlschläge bei Würfen zum Wissen abrufen zählen als Kritische Fehlschläge</li>\n</ul>"
        },
        "Effect: Sixfingers Elixir (Greater)": {
            "name": "Effekt: Sechsfinger-Elixier (Stark)",
            "description": "<p>Gewährt durch @Compendium[pf2e.equipment-srd.6odVabL0WL2H89Ic]{Sechsfinger-Elixier (Stark)}</p>\n<hr />\n<p>Automatisch angewandte Effekte:</p>\n<ul>\n<li>Bewegungsrate für Klettern steigt auf 6 m.</li>\n</ul>"
        },
        "Effect: Sixfingers Elixir (Lesser)": {
            "name": "Effekt: Sechsfinger-Elixier (Schwach)",
            "description": "<p>Gewährt durch @Compendium[pf2e.equipment-srd.JAOWw2GhupaYoYg9]{Sechsfinger-Elixier (Schwach)}</p>\n<hr />\n<p>Automatisch angewandte Effekte:</p>\n<ul>\n<li>Bewegungsrate für Klettern steigt auf 6 m.</li>\n</ul>"
        },
        "Effect: Sixfingers Elixir (Moderate)": {
            "name": "Effekt: Sechsfinger-Elixier (Mittel)",
            "description": "<p>Gewährt durch @Compendium[pf2e.equipment-srd.ieVRS2BjiWqauly6]{Sechsfinger-Elixier (Mittel)}</p>\n<hr />\n<p>Automatisch angewandte Effekte:</p>\n<ul>\n<li>Bewegungsrate für Klettern steigt auf 6 m.</li>\n</ul>"
        },
        "Effect: Skinstitch Salve": {
            "name": "Effekt: Wundsalbe",
            "description": "<p>Gewährt durch @Compendium[pf2e.equipment-srd.FgAPV0iLE6R1QMJ5]{Wundsalbe}</p>\n<hr />\n<p>Automatisch angewandte Effekte:</p>\n<ul>\n<li>Gegenstandsbonus von +2 auf deinen Fertigkeitswurf auf Heilkunde</li>\n</ul>"
        },
        "Effect: Stone Body Mutagen (Greater)": {
            "name": "Effekt: Steinkörpermutagen (Stark)",
            "description": "<p>Gewährt durch @Compendium[pf2e.equipment-srd.cqTCg6C0lvYUKQmx]{Steinkörpermutagen (Stark)}</p>\n<p>Implementierte Effekte:</p>\n<ul>\n<li>Malus von -2 auf Reflexwürfe</li>\n<li>-3 m Malus auf Bewegungsrate (Mininum 1,50 m)</li>\n</ul>\n<p>Nicht implementierte Effekte:</p>\n<ul>\n<li>Resistenz 10 gegen körperlichen Schaden (außer Wuchtschaden)</li>\n</ul>"
        },
        "Effect: Stone Body Mutagen (Lesser)": {
            "name": "Effekt: Steinkörpermutagen (Schwach)",
            "description": "<p>Gewährt durch @Compendium[pf2e.equipment-srd.5ftFTiKY0BMvhzL9]{Steinkörpermutagen (Schwach)}</p>\n<p>Implementierte Effekte:</p>\n<ul>\n<li>Malus von -2 auf Reflexwürfe</li>\n<li>-3 m Malus auf Bewegungsrate (Mininum 1,50 m)</li>\n</ul>\n<p>Nicht implementierte Effekte:</p>\n<ul>\n<li>Resistenz 5 gegen körperlichen Schaden (außer Wuchtschaden)</li>\n</ul>"
        },
        "Effect: Stone Body Mutagen (Moderate)": {
            "name": "Effekt: Steinkörpermutagen (Einfach)",
            "description": "<p>Gewährt durch @Compendium[pf2e.equipment-srd.FZ6SMwiei6NnEp3e]{Steinkörpermutagen (Einfach)}</p>\n<p>Implementierte Effekte:</p>\n<ul>\n<li>Malus von -2 auf Reflexwürfe</li>\n<li>-3 m Malus auf Bewegungsrate (Mininum 1,50 m)</li>\n</ul>\n<p>Nicht implementierte Effekte:</p>\n<ul>\n<li>Resistenz 5 gegen körperlichen Schaden (außer Wuchtschaden)</li>\n</ul>"
        },
        "Effect: Stone Fist Elixir": {
            "name": "Effekt: Steinfaustelixier",
            "description": "<p>Gewährt durch @Compendium[pf2e.equipment-srd.YcvSw7Zn3oyqlJaw]{Steinfaustelixier}</p>\n<hr />\n<p>Automatisch angewandte Effekte:</p>\n<ul>\n<li>deine Fäuste fügen 1W6 Punkte Wuchtschaden zu und gehören nicht mehr der Kategorie Nichttödlich an</li>\n</ul>"
        },
        "Effect: Sun Orchid Poultice": {
            "name": "Effekt: Sonnenorchideenwickel",
            "description": "<p>Gewährt durch @Compendium[pf2e.equipment-srd.1LKJvK9ofzIIkQX3]{Sonnenorchideenwickel}</p>\n<hr />\n<p>Automatisch angewandte Effekte:</p>\n<ul>\n<li>Gegenstandsbonus von +3 auf Rettungswürfe.</li>\n<li>Erhalte 20 Temporäre Trefferpunkte.</li>\n</ul>"
        },
        "Effect: Vermin Repellent Agent (Greater)": {
            "name": "Effekt: Schädlingsschutzcreme (Stark)",
            "description": "<p>Gewährt durch @Compendium[pf2e.equipment-srd.CReWZjAd3szYQ6Mx]{Schädlingsschutzcreme (Stark)}</p>\n<hr />\n<p>Automatisch angewandte Effekte:</p>\n<ul>\n<li>Gegenstandsbonus +3 auf Zähigkeitswürfe gegen Gift.</li>\n</ul>"
        },
        "Effect: Vermin Repellent Agent (Lesser)": {
            "name": "Effekt: Schädlingsschutzcreme (Schwach)",
            "description": "<p>Gewährt durch @Compendium[pf2e.equipment-srd.lgqyRmQ3GZbbxQsD]{Schädlingsschutzcreme (Schwach)}</p>\n<hr />\n<p>Automatisch angewandte Effekte:</p>\n<ul>\n<li>Gegenstandsbonus +1 auf Zähigkeitswürfe gegen Gift.</li>\n</ul>"
        },
        "Effect: Vermin Repellent Agent (Major)": {
            "name": "Effekt: Schädlingsschutzcreme (Mächtig)",
            "description": "<p>Gewährt durch @Compendium[pf2e.equipment-srd.C6v5p0ZtIUroYlU2]{Schädlingsschutzcreme (Mächtig)}</p>\n<hr />\n<p>Automatisch angewandte Effekte:</p>\n<ul>\n<li>Gegenstandsbonus +4 auf Zähigkeitswürfe gegen Gift.</li>\n</ul>"
        },
        "Effect: Vermin Repellent Agent (Moderate)": {
            "name": "Effekt: Schädlingsschutzcreme (Einfach)",
            "description": "<p>Gewährt durch @Compendium[pf2e.equipment-srd.WGbE7qAGw8O5yH07]{Schädlingsschutzcreme (Einfach)}</p>\n<hr />\n<p>Automatisch angewandte Effekte:</p>\n<ul>\n<li>Gegenstandsbonus +2 auf Zähigkeitswürfe gegen Gift.</li>\n</ul>"
        }
    }
}