{
    "label": "Fahrzeuge",
    "mapping": {
        "name": "name",
        "description": "data.details.description",
        "crew": "data.details.crew",
        "pilotingCheck": "data.details.pilotingCheck",
        "speed": "data.details.speed",
        "items": {
            "path": "items",
            "converter": "fromPack"
        },
        "tokenName": {
            "path": "token.name",
            "converter": "name"
        }
    },
    "entries": {
        "Sand Barge": {
            "name": "Sandkahn",
            "crew": "1 Fahrzeuglenker, 2 Besatzungsmitglieder",
            "pilotingCheck": "Diplomatie (SG 24), Einschüchtern (SG 24), Kenntnis (Seefahrt) (SG 22)",
            "speed": "40 Fuß/Schwimmen 12 m (Gerudert, Windangetrieben)",
            "items": {
                "Sand Skimmer": {
                    "name": "Sandgleiter",
                    "description": "<p>Der Sandkahn kann gleichermaßen gut über Sand, Wasser und Treibsand fahren, aber keinen festen Boden überqueren.</p>"
                }
            }
        },
        "Carriage": {
            "name": "Kutsche",
            "crew": "1 Fahrzeuglenker",
            "pilotingCheck": "Kenntnis (Fahrzeuglenken) (SG 16) oder Naturkunde (SG 18 bis SG 26, abhängig von der Zugkreatur)",
            "speed": "Bewegungsrate der langsamsten Zugkreatur (Gezogen von 2 Großen Kreaturen)"
        },
        "Chariot, Heavy": {
            "name": "Streitwagen, schwerer",
            "crew": "1 Fahrzeuglenker",
            "pilotingCheck": "Kenntnis (Fahrzeuglenken) (SG 18) oder Naturkunde (SG 20 bis SG 28, abhängig von der Zugkreatur)",
            "speed": "Bewegungsrate der langsamsten Zugkreatur (Gezogen von 2 Großen Kreaturen)"
        },
        "Bathysphere": {
            "name": "Bathysphäre",
            "crew": "1 Pilot",
            "pilotingCheck": "Handwerkskunst (SG 22), Kenntnis Baukunst (SG 20), Kenntnis Steuerung (SG 20)",
            "speed": "Schwimmen 6 m (Alchemistisch; nur Unterwasser)",
            "items": {
                "Cable": {
                    "name": "Kabel",
                    "description": "<p>Die Bathysphäre wird durch ein Kabel an der Oberfläche angehoben und abgesenkt und kann sich nur vertikal bewegen.</p>"
                },
                "Tether Buoy": {
                    "name": "Angebundene Boje",
                    "description": "<p>Die Besatzung und die Passagiere können, während sie im Fahrzeug sind, unter Wasser bis zu einer Tiefe von maximal 150 m atmen.</p>"
                },
                "Ballast Release": {
                    "name": "Ballast abwerfen",
                    "description": "<p>Der Pilot lässt den Ballast der Bathysphäre fallen. Die Kugel bewegt sich am Ende des Zuges des Piloten mit ihrer dreifachen Bewegungsrate in Richtung Oberfläche.</p>"
                }
            }
        },
        "Galley": {
            "name": "Galeere",
            "crew": "1 Fahrzeuglenker, 20 Ruderer",
            "pilotingCheck": "Kenntnis (Segeln) (SG 27), Diplomatie (SG 29) oder Einschüchtern (SG 29)",
            "speed": "Schwimmen 30 Fuß/9 m (Gerudert, Windangetrieben)",
            "items": {
                "Maneuverable": {
                    "name": "Manövrierfähig",
                    "description": "<p>Verfügt eine Galeere über die volle Anzahl fähiger Ruderer, kann sie gerudert schnell wenden, auf der Stelle drehen und sich sogar rückwärts bewegen. Jede 90°-Wende, die mit weniger einer vollen Fahrzeuglänge Fortbewegung erfolgt, kostet zusätzliche 1,50 m an Bewegungsrate. Rückwärts rudern ist auf die halbe Bewegungsrate beschränkt, dabei ist Wenden nicht möglich.</p>"
                }
            }
        },
        "Strider": {
            "name": "Läufer",
            "crew": "1 Fahrzeuglenker",
            "pilotingCheck": "Arkane Künste (SG 25), Handwerkskunst (SG 25), Ingenieurskunst (SG 23), Kenntnis (Fahrzeuglenken) (SG 23)",
            "speed": "30 Fuß/9 m (Alchemistisch, Magisch)",
            "items": {
                "Long Reach": {
                    "name": "Weite Schritte",
                    "description": "<p>Der Läufer kann Kluften von bis zu 9 m Breite überqueren, indem er darüber schreitet.</p>"
                }
            }
        },
        "Firework Pogo": {
            "name": "Feuerspringstock",
            "crew": "1 Fahrzeuglenker",
            "pilotingCheck": "Handwerkskunst (SG 21), Kenntnis (Fahrzeuglenken) (SG 19)",
            "speed": "Sprungstoß (Alchemistisch)",
            "items": {
                "Jump Jet": {
                    "name": "Sprungstoß",
                    "description": "<p>Der Feuerspringstock bewegt sich ausschließlich mit @Compendium[pf2e.actionspf2e.d5I6018Mci2SWokk]{Sprüngen} voran. Für jede Aktion, die zum @Compendium[pf2e.actionspf2e.uS3qDAgOkZ7b8ERL]{Steuern} aufgewandt wird, springt der Springstock 6 m weit horizontal in eine beliebige Richtung oder 3 m in die Höhe.</p>"
                },
                "Unstable Launch": {
                    "name": "Feuriger Start",
                    "description": "<p>Wenn der Benutzer 3 Aktionen aufwendet, um mit dem Feuerspringstock rücksichtslos @Compendium[pf2e.actionspf2e.uS3qDAgOkZ7b8ERL]{voranzukommen}, stößt dieser beim Absprung eine Flammenexplosion aus, die dem Fahrzeuglenker, dem Springstock selbst und jeder Kreatur in einem Radius von 3 m [[/r {3d6}[fire]]]{3W6 Punkte Feuerschaden} zufügt (@Check[type:reflex|dc:19|basic:true]{einfacher REF}).</p>"
                }
            }
        },
        "Shark Diver": {
            "name": "Haijäger",
            "crew": "1 Fahrzeuglenker, 4 Besatzungsmitglieder",
            "pilotingCheck": "Handwerkskunst (SG 30), Kenntnis (Fahrzeuglenken) (SG 28)",
            "speed": "Schwimmen 12 m (Alchemistisch)",
            "items": {
                "Electrify": {
                    "name": "Stromstoß",
                    "description": "<p><strong>Häufigkeit</strong> Einmal pro Minute;</p>\n<p><strong>Effekt</strong> Zwei Besatzungsmitglieder führen in ihrem Zug jeweils eine 2-AktionenAktivität durch, um einen elektrischen Impuls auszusenden, der allen Kreaturen im Umkreis von 3 m um den Haijäger [[/r {6d6}[electricity]]]{6W6 Punkte Elektrizitätsschaden} zufügt (@Check[type:fortitude|dc:28]{einfacher ZÄH}). Die Besatzung und Passagiere des Haijägers sind davon nicht betroffen.</p>"
                },
                "Submersible": {
                    "name": "Tauchfähig",
                    "description": "<p>Der Haijäger kann unter der Wasseroberfläche reisen und dabei ein Luftreservoir mitführen, das geeignet ist, um 11 mittelgroße Kreaturen bis zu 24 Stunden lang mit Sauerstoff zu versorgen. Er kann Tiefen von bis zu 90 m sicher erreichen. Bei einem Hüllenbruch verliert der Haijäger Luft aus seinem Reservoir, wodurch die gespeicherte Luft pro Runde um 10 Minuten reduziert wird. Ein beschädigter Haijäger erreicht zudem nur eine maximale Tiefe von 45 m.</p>"
                }
            }
        },
        "Cutter": {
            "name": "Kutter",
            "crew": "1 Fahrzeuglenker, 3 Besatzungsmitglieder",
            "pilotingCheck": "Naturkunde (SG 24), Kenntnis (Seefahrt) (SG 22)",
            "speed": "Schwimmen 30 Fuß/9 m (Windangetrieben)",
            "items": {
                "Sluggish": {
                    "name": "Schwerfällig",
                    "description": "<p>Dieses Fahrzeug muss pro 90°-Wende seine doppelte Fahrzeuglänge zurücklegen.</p>"
                }
            }
        },
        "Sailing Ship": {
            "name": "Segelschiff",
            "crew": "1 Fahrzeuglenker, 8 Besatzung",
            "pilotingCheck": "Kenntnis (Segeln) (SG 26), Diplomatie (SG 28) oder Einschüchtern (SG 28)",
            "speed": "Schwimmen 40 Fuß/12 m (Windangetrieben)",
            "items": {
                "Sluggish": {
                    "name": "Schwerfällig",
                    "description": "<p>Dieses Fahrzeug muss pro 90°-Wende seine doppelte Fahrzeuglänge zurücklegen.</p>"
                }
            }
        },
        "Wagon": {
            "name": "Wagen",
            "crew": "1 Fahrzeuglenker",
            "pilotingCheck": "Kenntnis (Fahrzeuglenken) (SG 15) oder Naturkunde (SG 17 bis SG 25, abhängig von den Zugkreaturen)",
            "speed": "Bewegungsrate der langsamsten Zugkreatur (gezogen von 2 Großen Kreaturen)"
        },
        "Airship": {
            "name": "Luftschiff",
            "crew": "1 Fahrzeuglenker, 5 sonstige Besatzung",
            "pilotingCheck": "Arkane Künste (SG 32), Handwerkskunst (SG 32), Naturkunde (SG 32) oder Kenntnis (Fahrzeuglenker) (SG 30)",
            "speed": "Fliegen 50 Fuß/15 m (Alchemistisch, Magisch)",
            "items": {
                "Sluggish": {
                    "name": "Schwerfällig",
                    "description": "<p>Dieses Fahrzeug muss das Doppelte seiner Länge pro 90°-Wende zurücklegen.</p>"
                }
            }
        },
        "Chariot, Light": {
            "name": "Streitwagen, leichter",
            "crew": "1 Fahrzeuglenker",
            "pilotingCheck": "Kenntnis (Fahrzeuglenken) (SG 14) oder Naturkunde (SG 16 bis SG 24, abhängig von der Zugkreatur)",
            "speed": "Bewegungsrate der Zugkreatur (Gezogen von 1 Großer Kreatur)"
        },
        "Sleigh": {
            "name": "Schlitten",
            "crew": "1 Fahrzeuglenker",
            "pilotingCheck": "Kenntnis (Fahrzeuglenken) (SG 15) oder Naturkunde (SG 17 bis SG 25, abhängig von der Zugkreatur)",
            "speed": "Bewegungsrate der langsamsten Zugkreatur (Gezogen von 2 Großen Kreaturen oder 6 Mittelgroßen Kreaturen)",
            "items": {
                "Ice Traverser": {
                    "name": "Eismarsch",
                    "description": "<p>Eis und Schnee sind für einen Schlitten kein Schwieriges Gelände; alle anderen Geländearten sind für einen Schlitten Schwieriges Gelände.</p>"
                },
                "Sluggish": {
                    "name": "Schwerfällig",
                    "description": "<p>Dieses Fahrzeug muss pro 90°-Wende seine doppelte Fahrzeuglänge zurücklegen.</p>"
                }
            }
        },
        "Velocipede": {
            "name": "Veloziped",
            "crew": "1 Fahrzeuglenker",
            "pilotingCheck": "Athletik (SG 15), Kenntnis (Fahrzeuglenken) (SG 17)",
            "speed": "entspricht der Bewegungsrate des Fahrzeuglenkers (Pedalangetrieben [entspricht Gerudert])",
            "items": {
                "Fragile": {
                    "name": "Zerbrechlich",
                    "description": "<p>Das Fahren des Velozipeds über Schwieriges Gelände erhöht den SG zusätzlich um 2, wodurch es zudem die Eigenschaft Waghalsig erhält.</p>"
                },
                "Portable": {
                    "name": "Tragbar",
                    "description": "<p>Das Veloziped kann auf seinem Rad von einer mittelgroßen Kreatur über den Boden gezogen werden. Die Kreatur erhält dabei den Zustand Belastet.</p>"
                }
            }
        },
        "Clockwork Bumblebee": {
            "name": "Mechanische Hummel",
            "description": "<p>Dieses wundersame Fahrzeug kann eine kleine Zahl Passagiere und Besatzung befördern. Es ist in der Lage, kurze Distanzen fliegend zurückzulegen, aber das Gewicht der mechanischen Vorrichtungen verhindert eine andauernde Nutzung. Der Pilot, die Besatzung und die Passagiere reiten auf den, auf dem Rücken angebrachten, Sätteln.</p>",
            "crew": "1 Pilot, 2 Besatzung",
            "pilotingCheck": "Handwerk (SG 28) oder Kenntnis (Fahrzeuglenken) (SG 26)",
            "speed": "Fliegen 30 Fuß/9 m (mechanisch)",
            "items": {
                "Wind Up": {
                    "name": "Aufziehbar",
                    "description": "<p> (10 Minuten aufziehen, 10 Minuten Nutzung, SG 26, Bereitschaft)</p>\n<p>Wie alle mechanischen Fahrzeuge muss eine Mechanische Hummel aufgezogen werden, um genutzt werden zu können, und eine Kreatur kann die Nutzungsdauer mit einem erfolgreichen Wurf für Mechanismus ausschalten gegen den angegebenen SG um 10 Minuten reduzieren. Ein mechanisches Fahrzeug kann in Bereitschaftsmodus versetzt werden, in dem der Pilot eine 3-Aktionen Handlung nutzt. Seine Nutzungszeit verringert sich im Bereitschaftsmodus nicht.</p>"
                }
            }
        },
        "Rowboat": {
            "name": "Ruderboot",
            "crew": "1 Fahrzeuglenker",
            "pilotingCheck": "Athletik (SG 16) oder Kenntnis (Segeln) (SG 14)",
            "speed": "Schwimmen 6 m (Gerudert)",
            "items": {
                "Portaged": {
                    "name": "Transportabel",
                    "description": "<p>Das Ruderboot kann von 2 Mittelgroßen Kreaturen oder 1 Großen Kreatur über Land getragen werden. Diese Kreaturen besitzen dabei den Zustand Belastet.</p>"
                }
            }
        },
        "Cart": {
            "name": "Karren",
            "crew": "1 Fahrzeuglenker",
            "pilotingCheck": "Kenntnis (Fahrzeuglenken) (SG 14) oder Naturkunde (SG 16 bis SG 24, abhängig von der Zugkreatur)",
            "speed": "Bewegungsrate der Zugkreatur (Gezogen von 1 Großen Kreatur)"
        },
        "Cliff Crawler": {
            "name": "Klippenkletterer",
            "crew": "1 Pilot, 2 Crew",
            "pilotingCheck": "Arkane Kunde (SG 29), Kenntnis Baukunst (SG 27), Kenntnis Steuerung (SG 27), Naturkunde (SG 29)",
            "speed": "Klettern 40 Fuß/12 m (Magisch)",
            "items": {
                "Mountain Traverser": {
                    "name": "Bergmarsch",
                    "description": "<p>Felsen und Steine sind kein Schwieriges Gelände für einen Klippenkletterer und es kann die meisten vertikalen Felsund Steinoberflächen mit bis zu der halben Bewegungsrate überqueren.</p>"
                }
            }
        },
        "Glider": {
            "name": "Gleiter",
            "crew": "1 Fahrzeuglenker",
            "pilotingCheck": "Kenntnis (Fahrzeuglenken) (SG 14) oder Naturkunde (SG 16)",
            "speed": "Fliegen 7,50 m (Windangetrieben)",
            "items": {
                "Starting Drop": {
                    "name": "Absturz mit Anlauf",
                    "description": "<p>Ein Gleiter kann nur starten, indem man mit ihm einen steilen Hang bei günstigen Winden herabspringt. Der Gleiter hat den Zustand Unkontrolliert und stürzt jede Runde 18 m tief, bis der Fahrzeuglenker erfolgreich @Compendium[pf2e.actionspf2e.yh9O9BQjwWrAIiuf]{die Kontrolle übernimmt}. Sollte der Gleiter vorher auf dem Boden aufschlagen, erleiden der Fahrzeuglenker und der Gleiter beide Sturzschaden.</p>"
                }
            }
        },
        "Steam Giant": {
            "name": "Dampfriese",
            "crew": " 1 Fahrzeuglenker, 3 Besatzung",
            "pilotingCheck": "Kenntnis (Fahrzeuglenken) (SG 32) oder Handwerkskunst (SG 34)",
            "speed": "20 Fuß/6 m (Alchemistisch)",
            "items": {
                "Flame Jet": {
                    "name": "Flammenstrahl",
                    "description": "<p>Zwei Besatzungsmitglieder wenden jeweils während ihres Zuges 3 Aktionen auf, um einen Flammenstrahl zu generieren, der am Ende des Zuges des zweiten Charakters aus einer beliebigen Ecke der vom Dampfriesen belegten Angriffsfläche hervorstößt. Die Flammen verursachen [[/r {6d8}[fire]]]{6W8 Punkte Feuerschaden} bei jeder Kreatur in einem @Template[type:cone|distance:30|traits:fire]{30 Fuß/9-m-Kegel} (@Check[type:reflex|dc:32|basic:true]{einfacher REF}). Der Flammenstrahl funktioniert nicht mehr, wenn der Dampfriese den Zustand Beschädigt besitzt.</p>"
                }
            }
        }
    }
}