{
  "label": "Equipment Effects",
  "mapping": {
    "name": "name",
    "description": "data.description.value"
  },
  "entries": {
    "Effect: Dragon's Blood Pudding (Major)": {
      "name": "Effect: Dragon's Blood Pudding (Major)",
      "description": "<p>If you choose to Demoralize, you gain a +4 item bonus to the Intimidation check.</p>"
    },
    "Effect: Aromatic Ammunition": {
      "name": "Effect: Aromatic Ammunition",
      "description": "<p>The components of this ammunition emit a strong smell when combined during its activation. A creature hit by an activated aromatic ammunition gains a distinct odor for up to 1 hour or until the scent is washed off (requiring at least a gallon of water and 10 minutes of scrubbing). Any creatures within 30 feet smell the target, allowing even those with a weak sense of smell to detect its presence, and all creatures gain a +1 item bonus to Track the affected creature for as long as it has the odor. A creature that has imprecise or precise scent doubles the range at which they can detect the target using their scent compared to the normal range of their scent.</p>"
    },
    "Effect: Nosoi Charm (Greater) (Lifesense)": {
      "name": "Effect: Nosoi Charm (Greater) (Lifesense)",
      "description": "<p>You gain lifesense as an imprecise sense with a range of 30 feet as long as you are holding the charm, and do not need to activate it. This allows you to sense the life force that animates living creatures and the perverse force that animates the dead, though you can't distinguish between the two.</p>"
    },
    "Effect: Dragon's Blood Pudding (Moderate)": {
      "name": "Effect: Dragon's Blood Pudding (Moderate)",
      "description": "<p>If you choose to Demoralize, you gain a +2 item bonus to the Intimidation check.</p>"
    },
    "Effect: Winged Boots": {
      "name": "Effect: Winged Boots",
      "description": "<p>Granted by @Compendium[pf2e.equipment-srd.aKoMqPDmVzPI7Q20]{Winged Boots}</p>\n<hr />\n<p>Automatically applied effects:</p>\n<ul>\n<li>gain a +30-foot fly Speed</li>\n</ul>"
    },
    "Effect: Eye of the Unseen (Greater)": {
      "name": "Effect: Eye of the Unseen (Greater)",
      "description": "<p>While wearing the eye, you gain a +2 item bonus to visual Perception checks.</p>"
    },
    "Effect: Rowan Rifle (Cold)": {
      "name": "Effect: Rowan Rifle (Cold)",
      "description": "<p>The <em>Rowan Rifle</em>'s damage type changes from its current damage type to cold. On the next sunrise, the <em>Rowan Rifle</em> returns to dealing fire damage.</p>"
    },
    "Effect: Raise a Shield": {
      "name": "Effect: Raise a Shield",
      "description": "<p>You position your shield to protect yourself. When you have Raised a Shield, you gain its listed circumstance bonus to AC. Your shield remains raised until the start of your next turn.</p>"
    },
    "Effect: Red-Rib Gill Mask (Moderate)": {
      "name": "Effect: Red-Rib Gill Mask (Moderate)",
      "description": "<p>After Activating the mask, you also gain a +2 item bonus to Fortitude saves against inhaled effects; this bonus is increased to +3 against the deadly volcanic gas known around Terwa Lake as Dead Man's Breath, and possibly against other similar volcanic gases at the GM's discretion.</p>"
    },
    "Effect: Static Snare": {
      "name": "Effect: Static Snare",
      "description": "<p>The target takes a -1 circumstance penalty to saving throws against electricity effects for as long as the persistent electricity damage lasts.</p>"
    },
    "Effect: Clockwork Cloak": {
      "name": "Effect: Clockwork Cloak",
      "description": "<p>Granted by @Compendium[pf2e.equipment-srd.v9tI40skGswMQTVN]{Clockwork Cloak}</p>\n<hr />\n<p>Automatically applied effects:</p>\n<ul>\n<li>-4 penalty to Perception</li>\n<li>+2 item bonus to Initiative</li>\n</ul>"
    },
    "Effect: Lover's Gloves": {
      "name": "Effect: Lover's Gloves",
      "description": "<p>Granted by activating @Compendium[pf2e.equipment-srd.nZE16PtiyY7DWlzd]{Lover's Gloves}</p>\n<hr />\n<p>Automatically applied effects:</p>\n<ul>\n<li>+1 status bonus to saving throws</li>\n<li>gain 10 temporary Hit Points </li>\n</ul>"
    },
    "Effect: Frost Vial (Major)": {
      "name": "Effect: Frost Vial (Major)",
      "description": "<p>The creature takes a -15-foot status penalty to its Speeds until the end of its next turn.</p>"
    },
    "Effect: Spiderfoot Brew (Major)": {
      "name": "Effect: Spiderfoot Brew (Major)",
      "description": "<p>When you drink a spiderfoot brew, tiny clinging hairs grow on your hands and feet, granting you a climb Speed of 25 feet and a +3 item bonus to athletics checks made to climb for 1 hour.</p>"
    },
    "Effect: Energizing Rune (Sonic)": {
      "name": "Effect: Energizing Rune (Sonic)",
      "description": "<p>The weapon becomes imbued with the triggering energy type. It deals an additional 1d8 sonic damage until the end of your next turn.</p>"
    },
    "Effect: Grit (Stage 2)": {
      "name": "Effect: Grit (Stage 2)",
      "description": "<p>The creature gains a +1 item bonus to Athletics, Crafting, and Performance checks, -2 item penalty to Perception checks.</p>"
    },
    "Effect: Nosoi Charm (Diplomacy)": {
      "name": "Effect: Nosoi Charm (Diplomacy)",
      "description": "<p>You gain a +2 item bonus to Diplomacy checks to make a request.</p>"
    },
    "Effect: Ochre Fulcrum Lens": {
      "name": "Effect: Ochre Fulcrum Lens",
      "description": "<p>You gain resistance 10 to mental damage and a +2 status bonus to saves against emotion effects.</p>\n<ul>\n<li>Resistance to mental damage not implemented</li>\n</ul>"
    },
    "Effect: Holy Steam Ball": {
      "name": "Effect: Holy Steam Ball",
      "description": "<p>Each use of the <em>holy steam ball</em> lasts for 1 hour and gives you a +2 item bonus to Will saving throws against possession effects from fiends and undead and effects from fiends and undead that cause the controlled condition.</p>"
    },
    "Effect: Exsanguinating Ammunition (Greater)": {
      "name": "Effect: Exsanguinating Ammunition (Greater)",
      "description": "<p>For 1 minute after you deal damage to a creature with an activated exsanguinating ammunition that creature gains weakness 3 to persistent bleed damage. In addition, the DC of any flat checks to end persistent bleed damage increases from 15 to 17 (from 10 to 12 when receiving particularly effective assistance) for the duration.</p>"
    },
    "Effect: Stalwart's Ring": {
      "name": "Effect: Stalwart's Ring",
      "description": "<p>Granted by @Compendium[pf2e.equipment-srd.bhpYiOmBysl8ZEYn]{Stalwart's Ring}</p>\n<hr />\n<p>Automatically applied effects:</p>\n<ul>\n<li>You gain 5 temporary Hit Points</li>\n</ul>"
    },
    "Effect: Energizing Rune (Cold)": {
      "name": "Effect: Energizing Rune (Cold)",
      "description": "<p>The weapon becomes imbued with the triggering energy type. It deals an additional 1d8 cold damage until the end of your next turn.</p>"
    },
    "Effect: Energy Robe of Fire": {
      "name": "Effect: Energy Robe of Fire",
      "description": "<p>You gain a +30-foot status bonus to Speed for 1 minute.</p>"
    },
    "Equipment Effect: Greater Healer's Gel": {
      "name": "Equipment Effect: Greater Healer's Gel",
      "description": "<p>Adding this material component to a heal spell bestows an additional 15 temporary Hit Points to one target healed by the spell. These temporary Hit Points last for 1 minute.</p>"
    },
    "Effect: Mudrock Snare (Success)": {
      "name": "Effect: Mudrock Snare (Success)",
      "description": "<p>The creature takes a -5-foot circumstance penalty to its Speed for 1 minute or until it Escapes (DC 27).</p>"
    },
    "Effect: Vaultbreaker's Harness": {
      "name": "Effect: Vaultbreaker's Harness",
      "description": "<p>Granted by @Compendium[pf2e.equipment-srd.LmveO9fSuEnkMKAH]{Vaultbreaker's Harness}</p>\n<hr />\n<p>Automatically applied effects:</p>\n<ul>\n<li>gain a +1 item bonus to Stealth checks </li>\n<li>+10-foot item bonus to your Speed</li>\n</ul>"
    },
    "Effect: Dueling Cape": {
      "name": "Effect: Dueling Cape",
      "description": "<p>Granted by using @Compendium[pf2e.equipment-srd.DA3HgyEBGEbtRNOo]{Dueling Cape}</p>\n<hr />\n<p>Automatically applied effects:</p>\n<ul>\n<li>+1 circumstance bonus to Feint</li>\n<li>+1 circumstance bonus to AC</li>\n</ul>"
    },
    "Effect: Boots of Elvenkind": {
      "name": "Effect: Boots of Elvenkind",
      "description": "<p>Granted by @Compendium[pf2e.equipment-srd.T00Xa9aDwHxd60Zh]{Boots of Elvenkind}</p>\n<p>Automatically applied effects:</p>\n<ul>\n<li>A +5-foot status bonus to your land Speed</li>\n</ul>"
    },
    "Effect: Euryale (Curse) Card": {
      "name": "Effect: Euryale (Curse) Card",
      "description": "<p>Granted by @Compendium[pf2e.gmg-srd.jVh90bfsC6w6iVyy]{Euryale (curse)} from the @Compendium[pf2e.equipment-srd.Gyi4IVrAVJRPJF2s]{Deck of Many Things}</p>\n<p>Automatically applied effects:</p>\n<ul>\n<li> -1 penalty to all saving throws.</li>\n</ul>"
    },
    "Effect: Energizing Rune (Electricity)": {
      "name": "Effect: Energizing Rune (Electricity)",
      "description": "<p>The weapon becomes imbued with the triggering energy type. It deals an additional 1d8 electricity damage until the end of your next turn.</p>"
    },
    "Effect: Triton's Conch": {
      "name": "Effect: Triton's Conch",
      "description": "<p>Granted by @Compendium[pf2e.equipment-srd.KLWjINVkWwJlOZEX]{Triton's Conch}</p>\n<hr />\n<p>Automatically applied effects:</p>\n<ul>\n<li>gain a +2 item bonus to Athletics checks to swim</li>\n</ul>"
    },
    "Effect: Brewer's Regret": {
      "name": "Effect: Brewer's Regret",
      "description": "<p>For 1 hour after consumption, you gain a +2 item bonus to saves against death and negative effects.</p>"
    },
    "Effect: Dragonfly Potion": {
      "name": "Effect: Dragonfly Potion",
      "description": "<p>You gain a fly Speed equal to your land Speed. Additionally, you gain @Compendium[pf2e.ancestryfeatures.DRtaqOHXTRtGRIUT]{Low-Light Vision} and a +2 item bonus to visual Perception checks, and you can't be flanked except by creatures higher level than you are (though lower‑level creatures can still help their higher‑level allies flank). These effects last for 1 minute.</p>"
    },
    "Effect: Rowan Rifle (Electricity)": {
      "name": "Effect: Rowan Rifle (Electricity)",
      "description": "<p>The <em>Rowan Rifle</em>'s damage type changes from its current damage type to electricity. On the next sunrise, the <em>Rowan Rifle</em> returns to dealing fire damage.</p>"
    },
    "Effect: Stonethroat Ammunition (Success)": {
      "name": "Effect: Stonethroat Ammunition (Success)"
    },
    "Equipment Effect: Greater Codex of Unimpeded Sight": {
      "name": "Equipment Effect: Greater Codex of Unimpeded Sight",
      "description": "<p>You gain a +1 item bonus on your Perception check to Seek or skill check to Recall Knowledge.</p>"
    },
    "Effect: Clockwork Goggles (Major)": {
      "name": "Effect: Clockwork Goggles (Major)",
      "description": "<p>You gain low-light vision, darkvision, and <em>@Compendium[pf2e.spells-srd.jwK43yKsHTkJQvQ9]{See Invisibility}</em> for 10 minutes.</p>"
    },
    "Effect: Sarkorian God-Caller Garb": {
      "name": "Effect: Sarkorian God-Caller Garb",
      "description": "<p>As long as it is within 30 feet of you, the summoned creature gains a +1 status bonus to AC. If it ever moves farther than 30 feet from you, the sigil fades and the creature loses the status bonus to AC, even if it later comes within 30 feet of you again.</p>"
    },
    "Effect: Energizing Rune (Acid)": {
      "name": "Effect: Energizing Rune (Acid)",
      "description": "<p>The weapon becomes imbued with the triggering energy type. It deals an additional 1d8 acid damage until the end of your next turn.</p>"
    },
    "Effect: Glittering Snare (Failure)": {
      "name": "Effect: Glittering Snare (Failure)",
      "description": "<p>The creature takes a -2 status penalty to Stealth checks for 2 minutes or until it spends a 2-action activity, which has the manipulate trait, to remove the glitter. If the creature was @Compendium[pf2e.conditionitems.zJxUflt9np0q4yML]{Invisible}, the glitter outlines it for 1 round, making it @Compendium[pf2e.conditionitems.DmAIPqOBomZ7H95W]{Concealed} rather than @Compendium[pf2e.conditionitems.VRSef5y1LmL2Hkjf]{Undetected} to visual senses.</p>"
    },
    "Effect: Prepared Camouflage Suit (Superb)": {
      "name": "Effect: Prepared Camouflage Suit (Superb)",
      "description": "<p>This lightweight mesh fits easily over light armor. The suit is designed to incorporate local flora and ground clutter into the mesh to help you blend in seamlessly with the environment. Due to the abrasive nature of the materials used, this item is unsuitable for use by unarmored characters. You can prepare the suit for use within your current environment by using an exploration activity that takes at least 10 minutes, but sometimes longer if the materials are hard to find or the environment is unusual enough to warrant additional difficulty in preparing camouflage that can blend with it consistently.</p>\n<p>A superb camouflage suit is fashioned from especially well-blended materials grants you a +2 item bonus to Stealth checks while you attempt to Hide or Sneak in the specific environment it has been prepared for. The suit remains usable in this manner until you rest for the night, though it doesn't grant the benefit whenever you aren't in the appropriate environment. The GM might rule that some environments are unusual enough that you can't create a camouflage suit appropriate for the environment.</p>"
    },
    "Effect: Ablative Armor Plating (Greater)": {
      "name": "Effect: Ablative Armor Plating (Greater)",
      "description": "<p>The plating grants the wearer of the armor the 20 Hit Points for 1 hour or until lost. Removing the plating early destroys it.</p>"
    },
    "Effect: Clockwork Goggles (Greater)": {
      "name": "Effect: Clockwork Goggles (Greater)",
      "description": "<p>You gain low-light vision and darkvision for 10 minutes.</p>"
    },
    "Effect: Inspiring Spotlight": {
      "name": "Effect: Inspiring Spotlight",
      "description": "<p>Granted by @Compendium[pf2e.equipment-srd.M1fRjN7E3P55zvmc]{Inspiring Spotlight}.</p>\n<p>Automatically applied effects:</p>\n<ul>\n<li>+1 item bonus to saving throws</li>\n<li>+1 item bonus to Charisma-based skill checks (Diplomacy, Deception, Intimidation, Performance)</li>\n</ul>"
    },
    "Effect: Glaive of the Artist": {
      "name": "Effect: Glaive of the Artist",
      "description": "<p>Granted by @Compendium[pf2e.equipment-srd.J5It6yq3ZkN059zP]{Glaive of the Artist}.</p>\n<p>Automatically applied effects:</p>\n<ul>\n<li>Gain a +2 item bonus to Performance checks</li>\n</ul>"
    },
    "Effect: Dragon's Blood Pudding (Greater)": {
      "name": "Effect: Dragon's Blood Pudding (Greater)",
      "description": "<p>If you choose to Demoralize, you gain a +3 item bonus to the Intimidation check.</p>"
    },
    "Effect: Fire and Iceberg": {
      "name": "Effect: Fire and Iceberg",
      "description": "<p>You gain resistance 5 to fire and cold for 1 minute.</p>"
    },
    "Effect: Aeon Stone (Orange Prism) (Religion)": {
      "name": "Effect: Aeon Stone (Orange Prism) (Religion)",
      "description": "<p>Granted by activating @Compendium[pf2e.equipment-srd.MO8J2IcBhiTnm9D8]{Aeon Stone (Orange Prism)} when the last spell you cast was a Divine spell.</p>\n<hr />\n<p>Automatically applied effects:</p>\n<ul>\n<li>+2 item bonus to Religion</li>\n</ul>"
    },
    "Effect: Exsanguinating Ammunition": {
      "name": "Effect: Exsanguinating Ammunition",
      "description": "<p>For 1 minute after you deal damage to a creature with an activated exsanguinating ammunition that creature gains weakness 1 to persistent bleed damage. In addition, the DC of any flat checks to end persistent bleed damage increases from 15 to 17 (from 10 to 12 when receiving particularly effective assistance) for the duration.</p>"
    },
    "Effect: Breastplate of Command": {
      "name": "Effect: Breastplate of Command",
      "description": "<p>Granted by @Compendium[pf2e.equipment-srd.RUEAV5LMUGFHcXcW]{Breastplate of Command}</p>\n<p>Automatically applied effects:</p>\n<ul>\n<li>+2 status bonus to saves against fear effects</li>\n</ul>"
    },
    "Effect: Glittering Snare (Critical Failure)": {
      "name": "Effect: Glittering Snare (Critical Failure)",
      "description": "<p>The creature takes a -4 status penalty to Stealth checks for 5 minutes or until it spends a 3-action activity, which has the manipulate trait, to remove the glitter. The glitter continues to fall around the creature until completely removed, leaving a trail behind it as it moves and revealing its rough location; the creature is @Compendium[pf2e.conditionitems.iU0fEDdBp3rXpTMC]{Hidden}, rather than @Compendium[pf2e.conditionitems.VRSef5y1LmL2Hkjf]{Undetected}, to any creature that can see the glitter whenever it would otherwise have been undetected.</p>"
    },
    "Effect: Deadweight Snare (Failure/Critical Failure)": {
      "name": "Effect: Deadweight Snare (Failure/Critical Failure)",
      "description": "<p>The creature takes a -2 status penalty to attack rolls for 1 round or until it Escapes (DC 18).</p>"
    },
    "Effect: Impossible Cake": {
      "name": "Effect: Impossible Cake",
      "description": "<p>For 10 minutes after the meal, you gain a +2 item bonus to your Deception checks to Impersonate, as well as to Lie to convince others that you possess knowledge about the type of item that the cake resembles.</p>"
    },
    "Equipment Effect: Potion of Minute Echoes": {
      "name": "Equipment Effect: Potion of Minute Echoes",
      "description": "<p>For 1 minute after drinking this potion, you gain a +2 status bonus to Perception checks to hear. In addition, each time you Seek, your hearing becomes a precise sense until the beginning of your next turn, allowing you to pinpoint creatures' locations and otherwise perceive the world in detail by listening to the sound of echoes.</p>"
    },
    "Effect: Arboreal's Revenge (Speed Penalty)": {
      "name": "Effect: Arboreal's Revenge (Speed Penalty)",
      "description": "<p>The targets take a -10-foot circumstance penalty to their Speeds as roots rapidly sprout from their wounds, which lasts until they @Compendium[pf2e.actionspf2e.SkZAQRkLLkmBQNB9]{Escape} (DC 20).</p>"
    },
    "Cover": {
      "name": "Cover",
      "description": "<p>When you're behind an obstacle that could block weapons, guard you against explosions, and make you harder to detect, you're behind cover. Standard cover gives you a +2 circumstance bonus to AC, to Reflex saves against area effects, and to Stealth checks to Hide, Sneak, or otherwise avoid detection. You can increase this to greater cover using the Take Cover basic action, increasing the circumstance bonus to +4. If cover is especially light, typically when it's provided by a creature, you have lesser cover, which grants a +1 circumstance bonus to AC. A creature with standard cover or greater cover can attempt to use Stealth to Hide, but lesser cover isn't sufficient.</p>"
    },
    "Effect: Tanglefoot Bag (Major)": {
      "name": "Effect: Tanglefoot Bag (Major)",
      "description": "<p>Granted by activating @Compendium[pf2e.equipment-srd.BxJNWWvpxacDIsdt]{Tanglefoot Bag (Major)}.</p>\n<hr />\n<p>A tanglefoot bag is filled with sticky substances. When you hit a creature with a tanglefoot bag, that creature takes a -20-foot status penalty to its Speeds for 1 minute. The Escape DC is 37.</p>"
    },
    "Effect: Ebon Fulcrum Lens (Reaction)": {
      "name": "Effect: Ebon Fulcrum Lens (Reaction)",
      "description": "<p>For the first 24 hours after you rejuvenate, you gain a +1 item bonus to attack rolls, saving throws, and DCs.</p>"
    },
    "Effect: Sylvan Wine": {
      "name": "Effect: Sylvan Wine",
      "description": "<p>Granted by @Compendium[pf2e.equipment-srd.5SxhwivDVTwV5O0F]{Sylvan Wineskin}</p>\n<p>Automatically applied effects</p>\n<ul>\n<li>+1 Item bonus to Will Saves</li>\n<li>+3 item bonus to Will saves vs fear</li>\n</ul>"
    },
    "Equipment Effect: Emberheart": {
      "name": "Equipment Effect: Emberheart",
      "description": "<p>Each ally in a @Template[type:emanation|distance:30] regains 30 Hit Points and gains a +3 status bonus to Fortitude saves until the end of their next turn.</p>"
    },
    "Effect: Brewer's Regret (Greater)": {
      "name": "Effect: Brewer's Regret (Greater)",
      "description": "<p>For 1 hour after consumption, you gain a +3 item bonus to saves against death and negative effects.</p>"
    },
    "Equipment Effect: Sage's Lash (Turquoise)": {
      "name": "Equipment Effect: Sage's Lash (Turquoise)",
      "description": "<p>Speak “clarity” to grant all affected a +2 status bonus to their next Will save for 1 minute.</p>"
    },
    "Effect: Impossible Cake (Greater)": {
      "name": "Effect: Impossible Cake (Greater)",
      "description": "<p>For 30 minutes after the meal, you gain a +3 item bonus to your Deception checks to Impersonate, as well as to Lie to convince others that you possess knowledge about the type of item that the cake resembles.</p>"
    },
    "Effect: Goggles of Night": {
      "name": "Effect: Goggles of Night",
      "description": "<p>Granted by activating @Compendium[pf2e.equipment-srd.K7VHhUamFz3kTnm5]{Goggles of Night}</p>\n<hr />\n<p>You gain Darkvision for 1 hour.</p>"
    },
    "Effect: Rowan Rifle (Sonic)": {
      "name": "Effect: Rowan Rifle (Sonic)",
      "description": "<p>The <em>Rowan Rifle</em>'s damage type changes from its current damage type to sonic. On the next sunrise, the <em>Rowan Rifle</em> returns to dealing fire damage.</p>"
    },
    "Effect: Energized Cartridge (Fire)": {
      "name": "Effect: Energized Cartridge (Fire)",
      "description": "<p>For the next strike, the ammunition fired from the affixed weapon to transforms into fire, dealing fire damage instead of its usual damage as well as [[/r {1d6}[persistent,fire]]] @Compendium[pf2e.conditionitems.lDVqvLKA6eF3Df60]{Persistent Fire Damage} on a critical hit.</p>"
    },
    "Effect: Nosoi Charm (Greater) (Performance)": {
      "name": "Effect: Nosoi Charm (Greater) (Performance)",
      "description": "<p>You gain a +3 item bonus to Performance checks to play an instrument, orate, or sing.</p>"
    },
    "Effect: Leopard's Armor": {
      "name": "Effect: Leopard's Armor"
    },
    "Effect: Tteokguk of Time Advancement": {
      "name": "Effect: Tteokguk of Time Advancement",
      "description": "<p>The creatures gains a +4 status bonus to Deceptions checks to pass as their chosen age, and can add their level to this check as a proficiency bonus if untrained.</p>"
    },
    "Equipment Effect: Moderate Healer's Gel": {
      "name": "Equipment Effect: Moderate Healer's Gel",
      "description": "<p>Adding this material component to a heal spell bestows an additional 10 temporary Hit Points to one target healed by the spell. These temporary Hit Points last for 1 minute.</p>"
    },
    "Effect: Tanglefoot Bag (Moderate)": {
      "name": "Effect: Tanglefoot Bag (Moderate)",
      "description": "<p>Granted by activating @Compendium[pf2e.equipment-srd.evBPzM1VsuYcoenn]{Tanglefoot Bag (Moderate)}.</p>\n<hr />\n<p>A tanglefoot bag is filled with sticky substances. When you hit a creature with a tanglefoot bag, that creature takes a -15-foot status penalty to its Speeds for 1 minute. The Escape DC is 19.</p>"
    },
    "Effect: Nosoi Charm (Performance)": {
      "name": "Effect: Nosoi Charm (Performance)",
      "description": "<p>You gain a +2 item bonus to Performance checks to play an instrument, orate, or sing.</p>"
    },
    "Effect: Earplugs": {
      "name": "Effect: Earplugs",
      "description": "<p>Granted by @Compendium[pf2e.equipment-srd.ksNUlyRHFUSK9xmz]{Earplugs}</p>\n<hr />\n<p>Automatically applied effects:</p>\n<ul>\n<li>+1 item bonus to saves against effects with the auditory trait</li>\n<li>-2 item penalty to Perception checks involving sound</li>\n</ul>"
    },
    "Effect: Deadweight Snare (Success)": {
      "name": "Effect: Deadweight Snare (Success)",
      "description": "<p>The creature takes a -1 status penalty to attack rolls for 1 round or until it Escapes (DC 18).</p>"
    },
    "Effect: Skyrider Sword": {
      "name": "Effect: Skyrider Sword",
      "description": "<p>You leap upon your sword as it soars through the air for up to 10 minutes. You gain a fly Speed of 25 feet or your land Speed, whichever is slower, but you can't Strike with your weapon except via the weapon's other activation. You can Dismiss the activation, and it ends automatically if you cease holding the weapon with at least one hand.</p>"
    },
    "Effect: Nosoi Charm (Greater) (Diplomacy)": {
      "name": "Effect: Nosoi Charm (Greater) (Diplomacy)",
      "description": "<p>You gain a +3 item bonus to Diplomacy checks to make a request.</p>"
    },
    "Effect: Ablative Armor Plating (Major)": {
      "name": "Effect: Ablative Armor Plating (Major)",
      "description": "<p>The plating grants the wearer of the armor the 30 Hit Points for 1 hour or until lost. Removing the plating early destroys it.</p>"
    },
    "Effect: Shrine Inarizushi": {
      "name": "Effect: Shrine Inarizushi",
      "description": "<p>Whenever you are in exploration mode, roll a separate Search activity check with a +1 status bonus; this does not affect your Speed. If the check succeeds, a fox appears to inform you of this discovery as best as it can, although it cannot speak.</p>"
    },
    "Effect: Barding of the Zephyr": {
      "name": "Effect: Barding of the Zephyr",
      "description": "<p>Granted by @Compendium[pf2e.equipment-srd.eoI3M6FXtcPWeg7i]{Barding of the Zephyr}</p>\n<p><strong>Activate</strong> <span style=\"font-family: 'Pathfinder2eActions'; font-size: 1.8em; display: inline;\">D</span> Interact</p>\n<p><strong>Frequency</strong> once per day</p>\n<p><strong>Effect</strong> You trace a finger along the wind motifs on the barding, granting your companion wearing the barding a fly Speed of 30 feet for 10 minutes. Even if the companion doesn't have the mount special ability, it can still Fly while being ridden.</p>\n<hr />\n<p>Automatically applied effects:</p>\n<ul>\n<li>Grants a fly speed for 30 feet</li>\n</ul>"
    },
    "Effect: Bracers of Missile Deflection": {
      "name": "Effect: Bracers of Missile Deflection",
      "description": "<p>Granted by @Compendium[pf2e.equipment-srd.eurAnvH8bK0ZctOR]{Bracers of Missile Deflection}</p>\n<p>Automatically applied effects:</p>\n<ul>\n<li>+2 circumstance bonus to AC</li>\n</ul>"
    },
    "Effect: Succubus Kiss (Stage 1)": {
      "name": "Effect: Succubus Kiss (Stage 1)",
      "description": "<p>The creature gains a +2 item bonus to initiative checks.</p>"
    },
    "Effect: Thurible of Revelation (Greater)": {
      "name": "Effect: Thurible of Revelation (Greater)",
      "description": "<p>Granted by @Compendium[pf2e.equipment-srd.VBCk7JXGsuG0cug1]{Thurible of Revelation (Greater)}</p>\n<hr />\n<p>Automatically applied effects:</p>\n<ul>\n<li>gain a +3 item bonus to Religion checks</li>\n</ul>"
    },
    "Effect: Red-Rib Gill Mask (Greater)": {
      "name": "Effect: Red-Rib Gill Mask (Greater)",
      "description": "<p>After Activating the mask, you also gain a +3 item bonus to Fortitude saves against inhaled effects; this bonus is increased to +4 against the deadly volcanic gas known around Terwa Lake as Dead Man's Breath, and possibly against other similar volcanic gases at the GM's discretion.</p>"
    },
    "Effect: Frost Vial (Lesser)": {
      "name": "Effect: Frost Vial (Lesser)",
      "description": "<p>The creature takes a -5-foot status penalty to its Speeds until the end of its next turn.</p>"
    },
    "Effect: Silkspinner's Shield (Climb)": {
      "name": "Effect: Silkspinner's Shield (Climb)",
      "description": "<p>You animate the silkspinner's shield. Eight spider legs sprout from the shield's rim, granting you a climb Speed of 25 feet until the end of your next turn.</p>"
    },
    "Effect: Enhanced Hearing Aids": {
      "name": "Effect: Enhanced Hearing Aids",
      "description": "<p>You mentally increase the input of your hearing aids. You gain a +1 item bonus to all hearing-based Perception checks for 10 minutes.</p>"
    },
    "Effect: Red-Rib Gill Mask (Lesser)": {
      "name": "Effect: Red-Rib Gill Mask (Lesser)",
      "description": "<p>After Activating the mask, you also gain a +1 item bonus to Fortitude saves against inhaled effects; this bonus is increased to +2 against the deadly volcanic gas known around Terwa Lake as Dead Man's Breath, and possibly against other similar volcanic gases at the GM's discretion.</p>"
    },
    "Effect: Mudrock Snare (Failure)": {
      "name": "Effect: Mudrock Snare (Failure)",
      "description": "<p>The creature takes a -10-foot circumstance penalty to its Speed for 1 minute or until it Escapes (DC 27).</p>"
    },
    "Effect: Clandestine Cloak": {
      "name": "Effect: Clandestine Cloak",
      "description": "<p>Granted by @Compendium[pf2e.equipment-srd.hmmDa6LCS22dZT7P]{Clandestine Cloak}</p>\n<p>Automatically applied effects:</p>\n<ul>\n<li>+1 item bonus to Stealth checks</li>\n<li>+1 item bonus to Deception checks to Impersonate a forgettable background character</li>\n<li>a -1 item penalty to Diplomacy and Intimidation checks.</li>\n</ul>"
    },
    "Effect: Thurible of Revelation (Moderate)": {
      "name": "Effect: Thurible of Revelation (Moderate)",
      "description": "<p>Granted by @Compendium[pf2e.equipment-srd.QEPx1fCf74xdpXBH]{Thurible of Revelation (Moderate)}</p>\n<hr />\n<p>Automatically applied effects:</p>\n<ul>\n<li>gain a +2 item bonus to Religion checks</li>\n</ul>"
    },
    "Effect: Cape of the Open Sky": {
      "name": "Effect: Cape of the Open Sky",
      "description": "<p>The cape becomes a pair of golden drake wings that grant you a fly Speed of 30 feet for 1 hour.</p>"
    },
    "Effect: Wand of Fey Flames": {
      "name": "Effect: Wand of Fey Flames",
      "description": "<p>For the duration of the spell, you can use the limning flames as a source for your magic. Creatures affected by your <em>faerie fire</em> must succeed at a Will save against your spell DC or take a -2 status penalty to their Will saves against enchantment and illusions spells as long as they are affected by <em>faerie fire</em>. You can cast an enchantment or illusion spell on such a creature up to a distance twice the spell's normal range. If the spell has a range of touch, or doesn't have a range, it is unaffected by the increase in range from the <em>faerie fire</em>.</p>"
    },
    "Effect: Nosoi Charm (Lifesense)": {
      "name": "Effect: Nosoi Charm (Lifesense)",
      "description": "<p>You gain lifesense as an imprecise sense with a range of 30 feet for 1 hour as long as you continue to hold the charm. This allows you to sense the life force that animates living creatures and the perverse force that animates the dead, though you can't distinguish between the two.</p>"
    },
    "Effect: Fire and Iceberg (Greater)": {
      "name": "Effect: Fire and Iceberg (Greater)",
      "description": "<p>You gain resistance 10 to fire and cold for 5 minutes.</p>"
    },
    "Effect: Slippers of Spider Climbing": {
      "name": "Effect: Slippers of Spider Climbing",
      "description": "<p>Granted by @Compendium[pf2e.equipment-srd.skBa6D1uxb0b2USn]{Slippers of Spider Climbing}</p>\n<hr />\n<p>Automatically applied effects:</p>\n<ul>\n<li>Gain a 20-foot climb Speed</li>\n</ul>"
    },
    "Equipment Effect: Greater Potion of Stable Form": {
      "name": "Equipment Effect: Greater Potion of Stable Form",
      "description": "<p>For the next hour, you gain a +3 item bonus against transmutation effects, which is +4 against polymorph effects. If you roll a success against a polymorph effect during that time, you get a critical success instead.</p>"
    },
    "Equipment Effect: Orchestral Brooch": {
      "name": "Equipment Effect: Orchestral Brooch",
      "description": "<p>You receive a +1 status bonus to your Performance check. If you roll a success, you get a critical success instead.</p>"
    },
    "Effect: Demon Dust (Stage 1)": {
      "name": "Effect: Demon Dust (Stage 1)",
      "description": "<p>The creature gains a +2 item bonus to Athletics checks</p>"
    },
    "Effect: Apricot of Bestial Might": {
      "name": "Effect: Apricot of Bestial Might"
    },
    "Effect: Goggles of Night (Major)": {
      "name": "Effect: Goggles of Night (Major)",
      "description": "<p>Granted by activating @Compendium[pf2e.equipment-srd.rXXNw6dwVn96giDi]{Goggles of Night (Major)}</p>\n<hr />\n<p>You gain greater darkvision, which lasts until you rotate the lenses back or the item is no longer invested by you, whicever comes first.</p>"
    },
    "Effect: Ivory Baton": {
      "name": "Effect: Ivory Baton",
      "description": "<p>The construct gains a +1 status bonus to attack rolls, damage rolls, and saving throws (except saving throws against the ivory baton).</p>"
    },
    "Effect: Taljjae's Mask (The General)": {
      "name": "Effect: Taljjae's Mask (The General)",
      "description": "<p>The General grants its wearer a +3 status bonus to attack rolls with polearms for 1 minute.</p>"
    },
    "Effect: Demon Dust (Stage 2)": {
      "name": "Effect: Demon Dust (Stage 2)",
      "description": "<p>The creature gains a +2 item bonus to Athletics checks</p>"
    },
    "Effect: Greater Fanged Rune Animal Form": {
      "name": "Effect: Greater Fanged Rune Animal Form",
      "description": "<p>You transform into a Small or Medium animal that wields the fanged weapon in its jaws; the animal matches the animal you are most closely associated with (a lizardfolk would turn into a lizard, a kitsune into a fox, a deer instinct barbarian into a deer, etc.) or a wolf if no specific animal is applicable. While in this form, you can attack with the fanged weapon even though you don't have any hands. However, you can attack only with the fanged weapon and you don't have hands or the ability to hold items. For effects dependent on how many hands you are using to hold the item, such as the two-hand trait, you are holding the weapon in two hands. You can Dismiss this effect, and it ends automatically if you drop the fanged weapon (whether or not of your own volition).</p>\n<p>In animal form, you gain low-light vision and a +5-foot item bonus to your Speed.</p>"
    },
    "Effect: Spiderfoot Brew (Greater)": {
      "name": "Effect: Spiderfoot Brew (Greater)",
      "description": "<p>When you drink a spiderfoot brew, tiny clinging hairs grow on your hands and feet, granting you a climb Speed of 20 feet and a +2 item bonus to athletics checks made to climb for 10 minutes.</p>"
    },
    "Equipment Effect: Greater Five-Feather Wreath": {
      "name": "Equipment Effect: Greater Five-Feather Wreath",
      "description": "<p>You gain a +1 item bonus to Acrobatics checks and resistance 5 to falling damage.</p>"
    },
    "Effect: Grit (Stage 3)": {
      "name": "Effect: Grit (Stage 3)",
      "description": "<p>The creature takes a -4 item penalty to Perception checks.</p>"
    },
    "Effect: Throne Card": {
      "name": "Effect: Throne Card",
      "description": "<p>Granted by @Compendium[pf2e.gmg-srd.IJ3nFDu2YcoP6ynd]{Throne} from the @Compendium[pf2e.equipment-srd.Gyi4IVrAVJRPJF2s]{Deck of Many Things}</p>\n<p>Automatically applied effects:</p>\n<ul>\n<li>a +4 status bonus to Diplomacy.</li>\n</ul>"
    },
    "Effect: Eye of the Unseen": {
      "name": "Effect: Eye of the Unseen",
      "description": "<p>While wearing the eye, you gain a +1 item bonus to visual Perception checks.</p>"
    },
    "Effect: Shield of the Unified Legion": {
      "name": "Effect: Shield of the Unified Legion",
      "description": "<p>Granted by @Compendium[pf2e.equipment-srd.PlYr5AhYwHIztMw2]{Shield of the Unified Legion}</p>\n<hr />\n<p>Auomatically applied effects:</p>\n<ul>\n<li>gain a +2 circumstance bonus to AC so long as you are within 30 feet of the shield's wielder and they have the shield raised</li>\n</ul>"
    },
    "Effect: Energizing Rune (Fire)": {
      "name": "Effect: Energizing Rune (Fire)",
      "description": "<p>The weapon becomes imbued with the triggering energy type. It deals an additional 1d8 fire damage until the end of your next turn.</p>"
    },
    "Effect: Golden Legion Epaulet": {
      "name": "Effect: Golden Legion Epaulet",
      "description": "<p>Granted by @Compendium[pf2e.equipment-srd.CDuN9kzyxBZ4cShq]{Golden Legion Epaulet}.</p>\n<p>Automatically applied effects:</p>\n<ul>\n<li>+1 status bonus to attack rolls</li>\n<li>+1 status bonus to damage rolls</li>\n<li>+1 status bonus to saving throws against fear</li>\n</ul>"
    },
    "Effect: Immolation Clan Pistol": {
      "name": "Effect: Immolation Clan Pistol",
      "description": "<p>For 1 minute, you look like a flaming corpse. During this time, you gain a +2 status bonus to Intimidation checks and the <em>immolation hand cannon</em> becomes a <em>+2 striking flaming hand cannon</em>.</p>"
    },
    "Effect: Energy Robe of Electricity": {
      "name": "Effect: Energy Robe of Electricity",
      "description": "<p>You gain a fly Speed equal to your Speed for 1 minute. (Defaults to 25)</p>"
    },
    "Equipment Effect: Major Five-Feather Wreath": {
      "name": "Equipment Effect: Major Five-Feather Wreath",
      "description": "<p>You gain a +2 item bonus to Acrobatics checks and resistance 10 to falling damage.</p>"
    },
    "Effect: Belt of the Five Kings (Wearer)": {
      "name": "Effect: Belt of the Five Kings (Wearer)",
      "description": "<p>Granted by @Compendium[pf2e.equipment-srd.YCjVrQnHfOtpmjYW]{Belt of the Five Kings} if you are wearing it.</p>\n<p>Automatically applied effects:</p>\n<ul>\n<li>Gain temporary Hit Points equal to your level</li>\n</ul>"
    },
    "Equipment Effect: Flask of Fellowship": {
      "name": "Equipment Effect: Flask of Fellowship",
      "description": "<p>You gain a +1 item bonus on your Diplomacy check.</p>"
    },
    "Effect: Malleable Mixture (Lesser)": {
      "name": "Effect: Malleable Mixture (Lesser)",
      "description": "<p>You gain a +2 item bonus to your Fortitude and Reflex DCs against attempts to Grapple, Shove, or Trip you for 1 minute.</p>"
    },
    "Effect: Tanglefoot Bag (Greater)": {
      "name": "Effect: Tanglefoot Bag (Greater)",
      "description": "<p>Granted by activating @Compendium[pf2e.equipment-srd.5Qkz4RVJr2Kx3RL6]{Tanglefoot Bag (Greater)}.</p>\n<hr />\n<p>A tanglefoot bag is filled with sticky substances. When you hit a creature with a tanglefoot bag, that creature takes a -15-foot status penalty to its Speeds for 1 minute. The Escape DC is 28.</p>"
    },
    "Effect: Goggles of Night (Greater)": {
      "name": "Effect: Goggles of Night (Greater)",
      "description": "<p>Granted by activating @Compendium[pf2e.equipment-srd.Tej30MsQo8Ek9aA6]{Goggles of Night (Greater)}</p>\n<hr />\n<p>You gain Darkvision until you rotate the lenses back or the item is no longer invested by you, whichever comes first.</p>"
    },
    "Effect: Silkspinner's Shield (Animated Strike)": {
      "name": "Effect: Silkspinner's Shield (Animated Strike)",
      "description": "<p>The target takes a -10-foot circumstance penalty to its Speeds for 1 round.</p>"
    },
    "Effect: Frost Vial (Moderate)": {
      "name": "Effect: Frost Vial (Moderate)",
      "description": "<p>The creature takes a -10-foot status penalty to its Speeds until the end of its next turn.</p>"
    },
    "Effect: Grit (Stage 1)": {
      "name": "Effect: Grit (Stage 1)",
      "description": "<p>The creature gains a +1 item bonus to Athletics, Crafting, and Performance checks.</p>"
    },
    "Effect: Energized Cartridge (Electricity)": {
      "name": "Effect: Energized Cartridge (Electricity)",
      "description": "<p>For the next strike, the ammunition fired from the affixed weapon to transforms into electricity, dealing electricity damage instead of its usual damage as well as [[/r {1d6}[persistent,electricity]]] @Compendium[pf2e.conditionitems.lDVqvLKA6eF3Df60]{Persistent Electricity Damage} on a critical hit.</p>"
    },
    "Equipment Effect: South Wind's Scorch Song (Speed Boost)": {
      "name": "Equipment Effect: South Wind's Scorch Song (Speed Boost)",
      "description": "<p>You gain a +10-foot status bonus to your Speed until the end of your next turn.</p>\n<p>While you have a status bonus to at least one of your Speeds, your Strikes with this scimitar that deal fire damage gain a +2 status bonus to their fire damage. The status bonus increases to +3 if the weapon has a greater striking rune and +4 for major striking.</p>\n<hr />\n<p><em>Note: the base +2 increase to damage is included in this effect. It cannot currently be made to automatically increase.</em></p>"
    },
    "Effect: Improvised Weapon": {
      "name": "Effect: Improvised Weapon",
      "description": "<p>Automatically applied effects:</p>\n<ul>\n<li>-2 penalty to attack rolls with any weapon with an improvised trait.</li>\n</ul>"
    },
    "Effect: Cloak of Elvenkind": {
      "name": "Effect: Cloak of Elvenkind",
      "description": "<p>Granted by @Compendium[pf2e.equipment-srd.MNBnZn0b80Q7yHJM]{Cloak of Elvenkind}</p>\n<p>Automatically applied effects:</p>\n<ul>\n<li>+1 item bonus to Stealth checks</li>\n</ul>"
    },
    "Effect: Server's Stew": {
      "name": "Effect: Server's Stew",
      "description": "<p>You are granted a +2 item bonus to Diplomacy checks made in the language granted by Server's Stew for 1 hour.</p>"
    },
    "Effect: Aeon Stone (Orange Prism) (Nature)": {
      "name": "Effect: Aeon Stone (Orange Prism) (Nature)",
      "description": "<p>Granted by activating @Compendium[pf2e.equipment-srd.MO8J2IcBhiTnm9D8]{Aeon Stone (Orange Prism)} when the last spell you cast was a Primal spell.</p>\n<hr />\n<p>Automatically applied effects:</p>\n<ul>\n<li>+2 item bonus to Nature</li>\n</ul>"
    },
    "Effect: Protective Barrier": {
      "name": "Effect: Protective Barrier",
      "description": "<p>Granted by Vontho's Golden Bridge</p>\n<p>While the swirling rings of the vehicle don't fully cover the pilot, they offer incredible protection, magically maintaining the temperature within and ablating physical attacks. The pilot is protected from severe cold, severe heat, extreme cold, and extreme heat. The pilot also gains resistance 10 to all physical damage (except adamantine).</p>"
    },
    "Effect: Parry": {
      "name": "Effect: Parry",
      "description": "<p>You position your weapon defensively, gaining a +1 circumstance bonus to AC until the start of your next turn.</p>"
    },
    "Effect: Tanglefoot Bag (Lesser)": {
      "name": "Effect: Tanglefoot Bag (Lesser)",
      "description": "<p>Granted by activating @Compendium[pf2e.equipment-srd.T6Appwwl6nUl56Xj]{Tanglefoot Bag (Lesser)}.</p>\n<hr />\n<p>A tanglefoot bag is filled with sticky substances. When you hit a creature with a tanglefoot bag, that creature takes a -10-foot status penalty to its Speeds for 1 minute. The Escape DC is 17.</p>"
    },
    "Effect: Taljjae's Mask (The Hero)": {
      "name": "Effect: Taljjae's Mask (The Hero)",
      "description": "<p>The Hero grants its wearer a +3 status bonus to attack rolls with bows for 1 minute.</p>"
    },
    "Effect: Belt of the Five Kings (Allies)": {
      "name": "Effect: Belt of the Five Kings (Allies)",
      "description": "<p>Granted by @Compendium[pf2e.equipment-srd.YCjVrQnHfOtpmjYW]{Belt of the Five Kings} when your ally activates it.</p>\n<p>Automatically applied effects:</p>\n<ul>\n<li>Gain Darkvision</li>\n</ul>"
    },
    "Effect: Sulfur Bomb (Failure)": {
      "name": "Effect: Sulfur Bomb (Failure)",
      "description": "<p>On a hit (but not a critical hit), the target takes a -1 status penalty to Perception checks and attack rolls until the end of its next turn.</p>"
    },
    "Effect: Celestial Armor": {
      "name": "Effect: Celestial Armor",
      "description": "<p>Granted by @Compendium[pf2e.equipment-srd.2uHcTZ40oZ62R9gy]{Celestial Armor}.</p>\n<p>Automatically applied effects:</p>\n<ul>\n<li>Gain a Fly speed of 30 feet</li>\n</ul>"
    },
    "Equipment Effect: South Wind's Scorch Song (Damage)": {
      "name": "Equipment Effect: South Wind's Scorch Song (Damage)",
      "description": "<p>While you have a status bonus to at least one of your Speeds, your Strikes with this scimitar that deal fire damage gain a +2 status bonus to their fire damage. The status bonus increases to +3 if the weapon has a greater striking rune and +4 for major striking.</p>\n<hr />\n<p>Note: The damage cannot currently be made to automatically increase as the damage dice increase.</p>"
    },
    "Effect: Stole of Civility": {
      "name": "Effect: Stole of Civility",
      "description": "<p>Granted by @Compendium[pf2e.equipment-srd.dRVDcmkaB2p8zPcs]{Stole of Civility}</p>\n<hr />\n<p>Automatically applied effects:</p>\n<ul>\n<li>You gain 10 temporary Hit Points</li>\n</ul>"
    },
    "Effect: Glamorous Buckler": {
      "name": "Effect: Glamorous Buckler",
      "description": "<p>Granted by @Compendium[pf2e.equipment-srd.IxuDS3POB6EH8TVN]{Glamorous Buckler}.</p>\n<p>Automatically applied effects:</p>\n<ul>\n<li>+1 item bonus to Deception checks to Feint</li>\n</ul>"
    },
    "Effect: Anklets of Alacrity": {
      "name": "Effect: Anklets of Alacrity",
      "description": "<p>Granted by activating @Compendium[pf2e.equipment-srd.9IwSktj0Xj7A2Ruh]{Anklets of Alacrity}.</p>\n<hr />\n<p>Automatically applied effects:</p>\n<ul>\n<li>+20-foot status bonus to Speed</li>\n</ul>"
    },
    "Effect: Cloak of the Bat": {
      "name": "Effect: Cloak of the Bat",
      "description": "<p>Granted by @Compendium[pf2e.equipment-srd.dipcMOtBFxtmsjkS]{Cloak of the Bat}</p>\n<p>Automatically applied effects:</p>\n<ul>\n<li>Gain a 30 foot Fly speed.</li>\n</ul>"
    },
    "Effect: Prepared Camouflage Suit": {
      "name": "Effect: Prepared Camouflage Suit",
      "description": "<p>This lightweight mesh fits easily over light armor. The suit is designed to incorporate local flora and ground clutter into the mesh to help you blend in seamlessly with the environment. Due to the abrasive nature of the materials used, this item is unsuitable for use by unarmored characters. You can prepare the suit for use within your current environment by using an exploration activity that takes at least 10 minutes, but sometimes longer if the materials are hard to find or the environment is unusual enough to warrant additional difficulty in preparing camouflage that can blend with it consistently.</p>\n<p>A suit prepared in this manner grants you a +1 item bonus to Stealth checks while you attempt to Hide or Sneak in the specific environment it has been prepared for. The suit remains usable in this manner until you rest for the night, though it doesn't grant the benefit whenever you aren't in the appropriate environment. The GM might rule that some environments are unusual enough that you can't create a camouflage suit appropriate for the environment.</p>"
    },
    "Effect: Ablative Armor Plating (Lesser)": {
      "name": "Effect: Ablative Armor Plating (Lesser)",
      "description": "<p>The plating grants the wearer of the armor the 5 Hit Points for 1 minute or until lost. Removing the plating early destroys it.</p>"
    },
    "Effect: Malleable Mixture (Greater)": {
      "name": "Effect: Malleable Mixture (Greater)",
      "description": "<p>You gain a +3 item bonus to your Fortitude and Reflex DCs against attempts to Grapple, Shove, or Trip you for 10 minutes.</p>"
    },
    "Effect: Spellguard Shield": {
      "name": "Effect: Spellguard Shield",
      "description": "<p>Granted by @Compendium[pf2e.equipment-srd.OqDAx4HJ39ojVtvg]{Spellguard Shield}</p>\n<hr />\n<p>Automatically applied effects:</p>\n<ul>\n<li>+2 circumstance bonus to AC</li>\n<li>+2 circumstance bonus to saving throws against spells</li>\n</ul>"
    },
    "Effect: Bracelet of Dashing": {
      "name": "Effect: Bracelet of Dashing",
      "description": "<p>Granted by @Compendium[pf2e.equipment-srd.BKdzb8hu3kZtKH3Z]{Bracelet of Dashing}</p>\n<p>Automatically applied effects:</p>\n<ul>\n<li>gain a +10-foot status bonus to Speed</li>\n</ul>"
    },
    "Effect: Thurible of Revelation": {
      "name": "Effect: Thurible of Revelation",
      "description": "<p>Granted by @Compendium[pf2e.equipment-srd.xaWuuQoBJiMLzggR]{Thurible of Revelation (Lesser)}</p>\n<hr />\n<p>Automatically applied effects:</p>\n<ul>\n<li>gain a +1 item bonus to Religion checks</li>\n</ul>"
    },
    "Effect: Rhino Shot": {
      "name": "Effect: Rhino Shot",
      "description": "<p>On a successful Strike, the attack deals an additional 2d6 force damage, and the target must succeed at a DC 19 Fortitude save or be knocked @Compendium[pf2e.conditionitems.j91X7x0XSomq8d60]{Prone}. If the hit with the <em>rhino shot</em> was a critical success, the target is knocked prone unless it critically succeeds at its save.</p>"
    },
    "Spell Effect: Barkskin (Arboreal's Revenge)": {
      "name": "Spell Effect: Barkskin (Arboreal's Revenge)"
    },
    "Equipment Effect: Chatterer of Follies": {
      "name": "Equipment Effect: Chatterer of Follies",
      "description": "<p>Until the end of your turn, that creature takes a -1 status penalty to Will saves against your enchantment spells and your illusion spells.</p>"
    },
    "Effect: Major Fanged Rune Animal Form": {
      "name": "Effect: Major Fanged Rune Animal Form",
      "description": "<p>You transform into a Small or Medium animal that wields the fanged weapon in its jaws; the animal matches the animal you are most closely associated with (a lizardfolk would turn into a lizard, a kitsune into a fox, a deer instinct barbarian into a deer, etc.) or a wolf if no specific animal is applicable. While in this form, you can attack with the fanged weapon even though you don't have any hands. However, you can attack only with the fanged weapon and you don't have hands or the ability to hold items. For effects dependent on how many hands you are using to hold the item, such as the two-hand trait, you are holding the weapon in two hands. You can Dismiss this effect, and it ends automatically if you drop the fanged weapon (whether or not of your own volition).</p>\n<p>In animal form, you gain low-light vision, imprecise scent to a range of 30 feet, and a +10-foot item bonus to your Speed.</p>"
    },
    "Effect: Ablative Armor Plating (Moderate)": {
      "name": "Effect: Ablative Armor Plating (Moderate)",
      "description": "<p>The plating grants the wearer of the armor the 10 Hit Points for 1 minutes or until lost. Removing the plating early destroys it.</p>"
    },
    "Effect: Exsanguinating Ammunition (Major)": {
      "name": "Effect: Exsanguinating Ammunition (Major)",
      "description": "<p>For 1 minute after you deal damage to a creature with an activated exsanguinating ammunition that creature gains weakness 5 to persistent bleed damage. In addition, the DC of any flat checks to end persistent bleed damage increases from 15 to 17 (from 10 to 12 when receiving particularly effective assistance) for the duration.</p>"
    },
    "Effect: Frost Vial (Greater)": {
      "name": "Effect: Frost Vial (Greater)",
      "description": "<p>The creature takes a -10-foot status penalty to its Speeds until the end of its next turn.</p>"
    },
    "Equipment Effect: Five-Feather Wreath": {
      "name": "Equipment Effect: Five-Feather Wreath",
      "description": "<p>You gain a +1 item bonus to Acrobatics checks and resistance 2 to falling damage.</p>"
    },
    "Effect: Clockwork Goggles": {
      "name": "Effect: Clockwork Goggles",
      "description": "<p>You gain low-light vision for 10 minutes.</p>"
    },
    "Effect: Impossible Cake (Major)": {
      "name": "Effect: Impossible Cake (Major)",
      "description": "<p>For 1 hour after the meal, you gain a +4 item bonus to your Deception checks to Impersonate, as well as to Lie to convince others that you possess knowledge about the type of item that the cake resembles.</p>"
    },
    "Effect: Blast Boots (Major)": {
      "name": "Effect: Blast Boots (Major)",
      "description": "<p>For 1 minute, the <em>major blast boots</em> remain active, allowing you to clumsily fly through the air for the duration. You gain a 30-foot Fly speed for the duration, but any time you @Compendium[pf2e.actionspf2e.cS9nfDRGD83bNU1p]{Fly}, you are @Compendium[pf2e.conditionitems.i3OJZU2nk64Df3xm]{Clumsy 1} until the start of your next turn.</p>"
    },
    "Effect: Aeon Stone (Black Pearl)": {
      "name": "Effect: Aeon Stone (Black Pearl)",
      "description": "<p>Granted by activating @Compendium[pf2e.equipment-srd.J7vQowV531Sz73Gw]{Aeon Stone (Black Pearl)}</p>\n<hr />\n<p>Automatically applied effects:</p>\n<ul>\n<li>+4 status bonus to saving throws vs. mental effects</li>\n</ul>"
    },
    "Effect: Diplomat's Badge": {
      "name": "Effect: Diplomat's Badge",
      "description": "<p>Granted by activating @Compendium[pf2e.equipment-srd.JJZgRx6naNJmDa81]{Diplomat's Badge}.</p>\n<hr />\n<p>Automatically applied effects:</p>\n<ul>\n<li>+2 item bonus to Diplomacy with a specific group</li>\n</ul>"
    },
    "Effect: Private Workshop (Using for Crafting)": {
      "name": "Effect: Private Workshop (Using for Crafting)",
      "description": "<p>The workshop is stocked with mundane tools and can be used to Craft items appropriate to the workshop with a +1 item bonus, but you must supply any raw materials.</p>"
    },
    "Effect: Emerald Fulcrum Lens (Saving Throw)": {
      "name": "Effect: Emerald Fulcrum Lens (Saving Throw)",
      "description": "<p>For 1 round you gain a +1 item bonus to attack rolls, saving throws, and DCs.</p>"
    },
    "Effect: Qat (Stage 1)": {
      "name": "Effect: Qat (Stage 1)",
      "description": "<p>The creature gains a +1 item bonus to Reflex saves.</p>"
    },
    "Effect: Curse of Potent Poison": {
      "name": "Effect: Curse of Potent Poison",
      "description": "<p>This curse magically speeds poison through your body.</p>\n<p data-visibility=\"gm\"><strong>Effect</strong> You take a -1 status penalty to Fortitude saves and you gain weakness 3 to poison (if you already have weakness to poison, increase it by 3). The curse remains until removed by <em>@Compendium[pf2e.spells-srd.OyFCwQuw8XRazsNr]{Remove Curse}</em> or similar magic.</p>"
    },
    "Equipment Effect: Lesser Healer's Gel": {
      "name": "Equipment Effect: Lesser Healer's Gel",
      "description": "<p>Adding this material component to a heal spell bestows an additional 5 temporary Hit Points to one target healed by the spell. These temporary Hit Points last for 1 minute.</p>"
    },
    "Effect: Metuak's Pendant": {
      "name": "Effect: Metuak's Pendant",
      "description": "<p>The creature gains a +1 status bonus to saving throws against mental effects that would make them confused, controlled, frightened, or stupefied.</p>"
    },
    "Effect: Energized Cartridge (Cold)": {
      "name": "Effect: Energized Cartridge (Cold)",
      "description": "<p>For the next strike, the ammunition fired from the affixed weapon to transforms into ice, dealing cold damage instead of its usual damage as well as [[/r {1d6}[persistent,cold]]] @Compendium[pf2e.conditionitems.lDVqvLKA6eF3Df60]{Persistent Cold Damage} on a critical hit.</p>"
    },
    "Effect: Ebon Fulcrum Lens (2 Action)": {
      "name": "Effect: Ebon Fulcrum Lens (2 Action)",
      "description": "<p>For 1 minute and gain a +1 item bonus to attack rolls, saving throws, and DCs.</p>"
    },
    "Effect: Storm Chair": {
      "name": "Effect: Storm Chair",
      "description": "<p>For 1 minute, you gain a fly Speed equal to your Speed, and adjacent creatures that hit you with a melee attack, as well as creatures that touch or hit you with an unarmed attack, take [[/r {2d6}[electricity]]]{2d6 electricity damage} each time. As normal, this applies to creatures who choose to touch you, not when you touch or attack another creature.</p>"
    },
    "Equipment Effect: Potion of Stable Form": {
      "name": "Equipment Effect: Potion of Stable Form",
      "description": "<p>For the next hour, you gain a +2 item bonus against transmutation effects, which is +3 against polymorph effects. If you roll a success against a polymorph effect during that time, you get a critical success instead.</p>"
    },
    "Effect: Clandestine Cloak (Greater)": {
      "name": "Effect: Clandestine Cloak (Greater)",
      "description": "<p>Granted by @Compendium[pf2e.equipment-srd.6jRXUXzYKIpm2uNp]{Clandestine Cloak (Greater)}</p>\n<p>Automatically applied effects:</p>\n<ul>\n<li>+2 item bonus to Stealth checks</li>\n<li>+2 item bonus to Deception checks to Impersonate a forgettable background character</li>\n<li>a -1 item penalty to Diplomacy and Intimidation checks.</li>\n</ul>"
    },
    "Effect: Energized Cartridge (Acid)": {
      "name": "Effect: Energized Cartridge (Acid)",
      "description": "<p>For the next strike, the ammunition fired from the affixed weapon to transforms into acid, dealing acid damage instead of its usual damage as well as [[/r {1d6}[persistent,acid]]] @Compendium[pf2e.conditionitems.lDVqvLKA6eF3Df60]{Persistent Acid Damage} on a critical hit.</p>"
    },
    "Effect: Aeon Stone (Orange Prism) (Occultism)": {
      "name": "Effect: Aeon Stone (Orange Prism) (Occultism)",
      "description": "<p>Granted by @Compendium[pf2e.equipment-srd.MO8J2IcBhiTnm9D8]{Aeon Stone (Orange Prism)} when the last spell you cast was an Occult spell.</p>\n<hr />\n<p>Automatically applied effects:</p>\n<ul>\n<li>+2 item bonus to Occultism</li>\n</ul>"
    },
    "Effect: Skyrider Sword (Greater)": {
      "name": "Effect: Skyrider Sword (Greater)",
      "description": "<p>You leap upon your sword as it soars through the air. You gain a fly Speed of 25 feet or your land Speed, whichever is slower, but you can't Strike with your weapon except via the weapon's other activation. You can Dismiss the activation, and it ends automatically if you cease holding the weapon with at least one hand.</p>"
    },
    "Equipment Effect: Topology Protoplasm": {
      "name": "Equipment Effect: Topology Protoplasm",
      "description": "<p>In this state, a creature that attempts a check to Squeeze uses the outcome one degree of success better than it rolls and can move its full Speed while Squeezing</p>"
    },
    "Effect: Cloak of Elvenkind (Greater)": {
      "name": "Effect: Cloak of Elvenkind (Greater)",
      "description": "<p>Granted by @Compendium[pf2e.equipment-srd.ZelCRLDI6M5IfjAI]{Cloak of Elvenkind (Greater)}</p>\n<p>Automatically applied effects:</p>\n<ul>\n<li>+2 item bonus to Stealth checks</li>\n</ul>"
    },
    "Effect: Jack's Tattered Cape": {
      "name": "Effect: Jack's Tattered Cape",
      "description": "<p>You gain a +1 item bonus to Stealth checks to @Compendium[pf2e.actionspf2e.XMcnh4cSI32tljXa]{Hide} or @Compendium[pf2e.actionspf2e.VMozDqMMuK5kpoX4]{Sneak}.</p>"
    },
    "Effect: Glittering Snare (Success)": {
      "name": "Effect: Glittering Snare (Success)",
      "description": "<p>The creature takes a -1 status penalty to Stealth checks for 1 minute or until it uses an Interact action to remove the glitter.</p>"
    },
    "Effect: Kraken's Guard": {
      "name": "Effect: Kraken's Guard",
      "description": "<p>When you use the shield to Grapple, you gain a +3 item bonus to your Athletics check.</p>"
    },
    "Effect: Spiderfoot Brew (Lesser)": {
      "name": "Effect: Spiderfoot Brew (Lesser)",
      "description": "<p>When you drink a spiderfoot brew, tiny clinging hairs grow on your hands and feet, granting you a climb Speed of 15 feet and a +1 item bonus to athletics checks made to climb for 1 minute.</p>"
    },
    "Effect: Hyldarf's Fang": {
      "name": "Effect: Hyldarf's Fang",
      "description": "<p>You call upon Hyldarf's power to gain the magic of a linnorm for a brief time. For 1 minute, you gain the effects of <em>@Compendium[pf2e.spells-srd.A2JfEKe6BZcTG1S8]{Fly}</em>, <em>@Compendium[pf2e.spells-srd.aqRYNoSvxsVfqglH]{Freedom of Movement}</em>, and <em>@Compendium[pf2e.spells-srd.uqlxMQQeSGWEVjki]{True Seeing}</em> as well as fire resistance 20.</p>"
    },
    "Effect: Fire and Iceberg (Major)": {
      "name": "Effect: Fire and Iceberg (Major)",
      "description": "<p>You gain resistance 15 to fire and cold for 10 minutes.</p>"
    },
    "Effect: Ablative Armor Plating (True)": {
      "name": "Effect: Ablative Armor Plating (True)",
      "description": "<p>The plating grants the wearer of the armor the 40 Hit Points for 1 hour or until lost. Removing the plating early destroys it.</p>"
    },
    "Effect: Crimson Fulcrum Lens": {
      "name": "Effect: Crimson Fulcrum Lens",
      "description": "<p>You gain a +2 item bonus to saving throws against fear effects and a +2 item bonus to your melee Strike damage (this increases to a +4 item bonus to damage if the melee Strike is a jaws attack).</p>"
    },
    "Effect: Aeon Stone (Orange Prism) (Arcana)": {
      "name": "Effect: Aeon Stone (Orange Prism) (Arcana)",
      "description": "<p>Granted by activating @Compendium[pf2e.equipment-srd.MO8J2IcBhiTnm9D8]{Aeon Stone (Orange Prism)} when the last spell you cast was an Arcane spell.</p>\n<hr />\n<p>Automatically applied effects:</p>\n<ul>\n<li>+2 item bonus to Arcana</li>\n</ul>"
    },
    "Effect: Disarm (Success)": {
      "name": "Effect: Disarm (Success)",
      "description": "<p>The target takes a -2 circumstance penalty to attacks with the item or other checks requiring a firm grasp on the item.</p>"
    },
    "Equipment Effect: Phoenix Flask": {
      "name": "Equipment Effect: Phoenix Flask",
      "description": "<p>For 1 minute, you gain a Fly speed of 40 feet. The first time each round that you Fly (including to hover in place), you shed burning feathers that deal [[/r {3d4}[fire]]]{3d4 fire damage} to all creatures in a @Template[type:emanation|distance:10] at the end of your movement (@Check[type:reflex|dc:29|basic:true|name:Phoenix Flask Fire Feathers|traits:consumable,evocation,fire,magical,potion|showDC:all] save).</p>"
    },
    "Effect: Succubus Kiss (Stage 2)": {
      "name": "Effect: Succubus Kiss (Stage 2)",
      "description": "<p>The creature gains a +2 item bonus to initiative checks.</p>"
    },
    "Effect: Oath of the Devoted": {
      "name": "Effect: Oath of the Devoted",
      "description": "<p><strong>Activate</strong> <span class=\"pf2-icon\">1</span> command</p>\n<p><strong>Frequency</strong> once per day</p>\n<p><strong>Effect</strong> You gain a +1 status bonus to Will saves. Choose a weapon or an unarmed Strike; your chosen attack deals an extra [[/r {1d6}[fire]]]{1d6 fire damage} for the next 1 minute.</p>"
    },
    "Equipment Effect: Mask of Allure": {
      "name": "Equipment Effect: Mask of Allure"
    },
    "Effect: Spellguard Blade": {
      "name": "Effect: Spellguard Blade",
      "description": "<p>Granted by @Compendium[pf2e.equipment-srd.v6LpzpIA0BmKvEtK]{Spellguard Blade}</p>\n<hr />\n<p>Automatically applied effects:</p>\n<ul>\n<li>+1 circumstance bonus to AC</li>\n<li>+1 circumstance bonus to saving throws against spells</li>\n</ul>"
    }
  }
}